T_0001mp3:e9efe6f89dc2acaf5e3920b425f35cb8:passed:20040825-175700:0.12741247
T_0002aac:fdb011d755bbf9ea5c0ff8861fdc2c00:passed:20040825-175700:0.113589769
T_0003ac3:14e284d0e0869da8c1918821ad70e71c:passed:20040825-175700:0.175484843
T_0004aacmp4:d269e5c28f988101fa73470929d0ecb5:passed:20040825-175700:0.130945211
T_0005flac:a3b2e5787d20a358f5af8806216a3738:passed:20040825-175700:0.124415853
T_0006oggflac:b1a3caf88dbb4b80aac2dbe6f47fb45f:passed:20040825-175700:0.107798744
T_0007oggvorbis:1d00e78489352aed24de5ebca227366e:passed:20040825-175700:0.134631323
T_0008avi_divx3_mp3:36504bb29dcc406dfe1cd3f02e05866b:passed:20040825-175700:0.250149194
T_0009realvideo_3:35a7102aaadff43c27be8d0f88670d12:passed:20040825-175700:0.269130774
T_0010realvideo_4:74a844eb447281090e0fa32df6fc4a9d:passed:20040825-175700:0.133965049
T_0011srt:978c1dc3a889fd9f34e9e104953fb8d9:passed:20040825-175700:0.05079915
T_0012ssa:806b86b362115419dee409eb133d3bf5:passed:20040825-175700:0.050361156
T_0013vobsubs:fba8fd342819cf243bb18330857fd20a:passed:20040825-175700:0.071757683
T_0014splitting_by_size:83c2c5a3772df2bdbdfc8e57fd817bbe-3c342b8705cddb999d5ef1be9a20cd1f:passed:20040825-175700:0.235009194
T_0015splitting_by_time:4cab05b09d2432e82592b29453ada45a-891e213414e6386bdc2b05c1368b23e5:passed:20040825-175700:0.23243534
T_0016cuesheet:70fc24694eec7fa9f62376591fc83fbf:passed:20040825-175700:0.067347546
T_0017chapters:aedeeb80e76df8c9c0312cb39db6022a-013455e36fc5e2965e5a072208bf1a62:passed:20040825-175700:0.121566766
T_0018attachments:0e6fe5ae532d34b4ed7cf71ff9cc6b56-c2a2b64741d5ac330679cbebdfd10951:passed:20040825-175700:0.11554183
T_0019attachments2:f63b9f8764310431cecbffb9e60a4d1d-51f4438e62a63a361eaeda21512e4b2e-f63b9f8764310431cecbffb9e60a4d1d-9695c5a00fbe32738445138226e7aa40:passed:20040825-175700:0.505896689
T_0020languages:dd1255d775382df837dc03164c69ac64:passed:20040825-234208:0.89810434
T_0021aspect_ratio:565a503013aed0b96585ff7341d387d2-ca96128964e22511148b11a6cce17d19:passed:20040825-234244:0.283430669
T_0022display_dimensions:892f838f0c378811de3eddb2b6513c7e:passed:20040825-234339:0.145136456
T_0023no_x:fa4c2937e58e2330036520000b1c7f87-d4f183d934f9c869d1b854ce5bc52c53-960c7527fbc4e3d86bdc5c9919628dd9:passed:20040825-234343:1.912465603
T_0024sync_mp3:a2c7178676e3a6d4d0355865071f27a6-31b2c76f0fd199042b9a0c29501add4f:passed:20040825-234344:0.259152907
T_0025sync_vorbis:632004f5875c3bd303f750a13a090e15-18af753de0b0a6715c60eba5b2437185:passed:20040825-234344:0.270892967
T_0026sync_pcm:c9170eedd1a2140964e611261201bd91-8fd0c8e99c7d8ba6913fc0b0df3aa695:passed:20040825-234346:0.320633569
T_0027default_track:5f9f5df9930c4b0c39f2118842b0bbdd:passed:20040825-234348:0.836745949
T_0028compression:84308484dd9602c0c32e5d999f1ec8e4:passed:20040825-234348:0.076834142
T_0029link:all ok:passed:20040825-235039:1.392578512
T_0032cues:ab81b6299cba5d10795f11ccb5364138:passed:20040825-235040:0.261608742
T_0033timecode_scale:f9319d41ba80e63207d7aa3a1730c48e-fffbcbdd6165ae33fffed2df2ee35315-f9319d41ba80e63207d7aa3a1730c48e-fffbcbdd6165ae33fffed2df2ee35315:passed:20040825-235040:0.695779058
T_0034ac3misdetected_as_mp2:f271c2a874f85cefc6446030f684022d:passed:20040920-100447:0.083646033
T_0035X_vfw_video:b633b965d60e5d31c7601dda8e2b6379:passed:20040920-185358:0.217530982
T_0036X_mp3:b3bb67d316e20da12926d5c1d628f6e5:passed:20040920-190109:0.184677218
T_0037X_aac:66ccc4dde4eb9b3109b810b5a2be99ee:passed:20040920-190110:0.205856544
T_0038X_ac3:6ca341797c5f93e273c8502f4d6f4fba:passed:20040920-185449:0.203324348
T_0039X_flac:e0d2c003502fd5eddfc71f63d62b8072:passed:20040920-185252:0.192093091
T_0041X_mp2:a2b37e3016b664cf96f75fa27d23b997:passed:20040920-190645:0.183164209
T_0042X_vorbis:9d154345772ce7c701518869daf405b8:passed:20040920-190645:0.195227
T_0043X_wav:6a368be18ccaf3459b24056e6c2718f5:passed:20040920-190646:0.226918676
T_0044X_srt:e811bbfaa7fabc16d14310db3092dbe3:passed:20040920-190646:0.207347161
T_0045X_ssa:702cb49d23f4d1985471c1dc46053576:passed:20040920-190646:0.185816265
T_0046X_chapters:a9255d40de93e2731aaead0a746e582f:passed:20040920-192348:0.033557858
T_0047X_tags:26ad4ab0491d76d9fb6f57b4a4b35400:passed:20040920-192348:0.035348177
T_0048X_chapters_ogmstyle:b59877767b804d167790e5784fb260bb:passed:20040920-192349:0.034031671
T_0049ass:4b3aecc5c85edc77e9ba846613546d20:passed:20040929-113852:0.095091441
T_0050X_ass:6aeb4aef55511282630e9f0e69777c46-6aeb4aef55511282630e9f0e69777c46:passed:20040929-113852:0.160631456
T_0051ogm:52363414a156300600874dfbf45af6cb:passed:20071223-112225:0.297362512
T_0200mp2_from_mp4:451e6334092c4c632cfd1528c46efc00:passed:20040917-185156:0.235721709
T_0201avc_from_mp4_with_par:d676aa03e1280cd3a2b9b6d261708d16:passed:20050125-224528:0.143972279
T_0202avc_from_mp4_with_par_bframes:d02a575bdc82c2d272542c9c2fb23b70:passed:20050125-224635:0.118101336
T_0203wavpack_with_correctiondata:68d5ef9e99e0012b146b752f4398ea81:passed:20050201-094411:0.087001311
T_0204wavpack_without_correctiondata:c45aa5bac204400c6c2909026f02b7da:passed:20050201-094414:0.055311627
T_0205X_cuesheets:3b00b00c7d185137e30d7e95e3123d33-b3bb67d316e20da12926d5c1d628f6e5:passed:20050210-211853:0.253313382
T_0206X_vobsub:93edcbea4729b197facd3048ee1445b8-f0b88ab55ffda1f9cc447a784829bcba-b4a3952ad77c8e9d48bf463ff5c88062-39e6f66ff3e0287735c4a577487de878-fba8fd342819cf243bb18330857fd20a:passed:20050211-231728:0.181951902
T_0207segmentinfo:bcf8c523c6fc6943960fef3306274b0f:passed:20050211-234856:0.12233022
T_0208cat_and_splitting:83c2c5a3772df2bdbdfc8e57fd817bbe-a1d1e3687c951a521f072846a30ba168:passed:20050306-152640:0.431995005
T_0209ac3misdeetected_as_mpeges:ae22cf7dda8da426d3f71a8468da55a2:passed:20050315-092851:0.118181337
T_0210splitting_and_chapters:bc11023033f50759377f410180651acb-301f7aab41e238b8141ed2282b606680-b71295e0722ec08b6c7599b9e8ff708b-b55721ab49acbb9242c2ec89d19572db:passed:20050406-165104:0.499328912
T_0211bug_segfault_reading_mp4:37308e227ecc85fe0c42949770444a0c:passed:20050728-083402:0.374272825
T_0212ssa_attachments:feec29519c7df83e15a67b55032a1547-9a5a5ed80808c9d448ca5b44b640d8aa-2c8ef428ff00aeea74ee10d12a3702b5-63703180da67852a7ecf01c118869ed8-688c01d680b8a76944310429425d861f:passed:20050824-131320:0.275151142
T_0213mp4_broken_pixel_dimensions:4c9dd54f174628012292c6a3be8583a0:passed:20050919-094831:0.157005275
T_0214one_frame_avi:230428bb150b321ad3b812d1f4cba3fc:passed:20051004-192755:0.05424713
T_0215X_codec_extradata_avi:976dcac886af1b6694feba9ef89c6405-74ac799ad899f703cbb6c6654e5f9f51:passed:20051004-194707:0.082421086
T_0216mp4_editlists:813089942b4f6f8b4ed6c29c6f330835:passed:20051118-191453:0.072006614
T_0217file_identification:f208b1fbb2ac831ad3dc275e3744bc06-a39d127472f5545c5ed2126e1a8dd722-0b06a922ad49d0da282c9d6ac9154f26-008c1e78c7bdae60662f429e2d8a3145-24ae5ca8a1fe5f834a4b67e16d60a3a0-30bd1e1781d00c5c3274164c6ff91370-45cc529fd19b08e5a0747eaf8dfb76fc-0e8d4394965ec2338e92e73c745011f9-f3b65a4fabe4aa0d02b37b7fb801cec6-4d3ff57b33f852b6986e3cb0f78437c7-1b39223923f4960da916296f6d9d933a-35bf6a9eb624dd1980d46c5fd53a19be-ca389d7ad7ae1cefc1c333dc40e25e12-d6bc41ba31b316b0b8b58200ae3a835a-9472e75f4d84c45a6a611bd9c42d523b-fed0f933a3c2705659931cd5020129ac-a06bbac438a53791c8b2f139b90ea5f2-95d5ab191a802e8d9e2471b4dace1890-1a46f74049631a60f214cedbdd82c296-e2459a3cb44e35e973a78d1387412f88-b396e0a31cc986cedccbdfc3e81efc25-78d7bada0260da13746cf471a21c8656:passed:20051209-180815:1.891180328
T_0218theora:d650383cb37fcea757d1426c3f647769-caf8f652b0bd7cd22a88b4bbe71f0d8c:passed:20060428-105054:0.595266516
T_0219srt_short_timecodes:ff647aacf7643931afc51b4fd4d8fdfb:passed:20060926-112658:0.112933985
T_0220ass_with_comments_at_start:c2179a2873eb151ee42bcce3f9dca6c9:passed:20060926-120101:0.182545216
T_0221aac_lc_misdetected_as_sbr:4c72f0e7a6dc3a03578d75b648bc0383:passed:20061103-174221:0.061594392
T_0222stereo_mode:5202c888f0a66c8e04d0d496484afaac-daf8e7d08743b0bf0a7cb4ee0b0c6f16-daf8e7d08743b0bf0a7cb4ee0b0c6f16-0eb626b094e79bb86757eb5c50fb16c9:passed:20061107-092251:1.508843676
T_0223ra_cook_keyframes:8423bb587771efe230a6052511749068:passed:20061228-150947:1.093019177
T_0224dts:b14fc7d0136b862228164e4bc9da03a2-9d1ac5aa39b8f6688defb0cd00db3e6e:passed:20070206-174735:0.303554128
T_0225dts_in_wav:26a7c80389b7ad4a2ef798ae6d9c2da6-b35a2c61e39344ad555ec4d3b7191251:passed:20070206-174726:1.047792881
T_0226h264:6d1af760345bc1348d11774a84cc2023:passed:20070208-103558:1.086258227
T_0227h264_with_garbage:e4cbe28dc10299a7fa37f924330fe48c:passed:20070208-103656:0.992183393
T_0228h264_no_idr_slices:7c7e9dd83ac1f0bba5e47d4e876444e8:passed:20070426-103130:0.471303045
T_0229rav3_in_rm:81a7c5428008993ff75213e7c088226f:passed:20070619-220659:0.062584468
T_0231X_ac3_header_removal:6ca341797c5f93e273c8502f4d6f4fba:passed:20070623-111240:0.092211804
T_0232h264_changing_sps_pps:d722d1797352c14159abf529b143e753:passed:20070815-211934:0.667516371
T_0233srt_with_coordinates:117fb2fc7a479714071319593abef418:passed:20070819-203105:0.100179821
T_0234avi_aac_codecid_0x706d:f892436d1e93e9fab6218fbe10fe76ed:passed:20080223-174500:0.378911082
T_0235wav_fmt_chunk_length:90424c1c0db94f52bec90292fb5a5e71:passed:20080226-134540:0.275935866
T_0236ac3_in_mov:0536592785f278b21218cfe13ccb7426:passed:20080229-103912:0.267673437
T_0237ac3_in_wav_iec61937_mode:14e284d0e0869da8c1918821ad70e71c:passed:20080229-152103:0.25640574
T_0238ac3_in_wav_acm_mode:2d0813c5be4f6b330f2bafabba0c82ec:passed:20080229-152339:0.070878917
T_0239aac_with_id3_tags:62a0698be099dc11a64425c37c5beef0:passed:20080309-170151:0.197850106
T_0240dts_hd:e89c65af886dfbf206b1b6aea159f961-53f80bdd67472e841e8e7c40e3fa97ab:passed:20080309-170749:0.359067525
T_0241ac3_with_id3_tags:14e284d0e0869da8c1918821ad70e71c:passed:20080309-183547:0.178941554
T_0242ogm_with_chapters:488a9e29b8b3cd29dae82fab12b0cf35:passed:20080420-204932:0.058593694
T_0243avi_with_audio_garbage:fd0aa0b239879968d854a87da482532e:passed:20080913-185346:0.117956125
T_0244iconv_missing_character:6c40f7c7b4a70345d0493c79242f7e28:passed:20081004-213713:0.211021353
T_0245srt_timecode_formats:243b4ef8b157e3e87bd3f8371fc82bc6-243b4ef8b157e3e87bd3f8371fc82bc6:passed:20081202-141604:0.262704778
T_0246theora_pixel_aspect_ratio:628ba4d64c60fcaac84688bd181d9ce3:passed:20081205-174857:0.089639088
T_0247attachment_selection:7343e5279dbfacc3312c40a7cbc942af-425e70fa8e81dd38f7c758384b71d288-ad0de00a2f082e31d6770e0db02a2521-be3a7d35792646b6391d28bbfcc38248+a5f6bb9ceb7e1aec15142865e48d75c1:passed:20090228-191612:0.248901767
T_0248mpeg2:84f435769bb7883bd14450a8a95e8b0e-f2bf5a1b683e3c31cf4cb559f623be29:passed:20090531-132819:1.828845941
T_0249mpeg2_no_codecprivate:902e61a9b466f877790f103c44094140:passed:20090531-132821:0.804034756
T_0250tag_selection:abb20e5f4d2a8a6c2d6d4e2e007b232a-cbaee51cd2c60066d40d90e3d6029b51-4c7b1cb951e18624a0e54782740d9585-9d804724a10d4e934a4d571d1cbd506b-7761fa13d4012330ce22c2dd84a386da-7761fa13d4012330ce22c2dd84a386da-51e61211c1a3fd7a5cbe14c359f879ea:passed:20090531-205640:1.734814209
T_0251vc1_truehd_eac3_from_evo:c3e3c6ea1293696ffff4803e02488fc8:passed:20090606-220945:0.374443836
T_0252native_mpeg4:373814031925c9c89af95c87b023df3a:passed:20090620-163119:2.148476233
T_0254avi_with_subs:665012fa40f1f800e2ce5c385ed48216-665012fa40f1f800e2ce5c385ed48216-2adfee6d0da23aa28bc60a43a0d6b122-17355633078675f7c8c66e6c175c68df-c436ec2cd79352952a849468578178df:passed:20091025-104213:1.133544547
T_0255aspect_ratio_display_dimensions:0[4254x815-4254x815-1212x2424-1800x360-3600x360]1[3600x360-3600x360-1212x2424-1800x360-3600x360]2[7200x360-7200x360-1212x2424-1800x360-3600x360]:passed:20091025-164606:2.038096695
T_0256cropping_stereo_mode:0[S2-1-2-3-4]1[S1-5-6-7-8]:passed:20091025-204854:0.404846044
T_0257theora_v1_1:3019af501962570b0dad6f005c02933a-7ab420a65619629f06209894b19ff411:passed:20091217-134109:1.056685804
T_0258srt_negative_timecodes:a4a60031cb9586bfd6bacd21f4eaa14a:passed:20091226-220350:0.234074879
T_0259mp4_chapters_text_trak:50411fcb281fa134cbf771477dab45aa-836ed7856df2310b1641ea48e415247a:passed:20091230-221546:2.548017548
T_0260version_numbers:ok:passed:20100120-131720:0.151644954
T_0261line_endings_in_text_files:2ba4b9978a2efb48a83e482a6c192076-2ba4b9978a2efb48a83e482a6c192076-2ba4b9978a2efb48a83e482a6c192076:passed:20100315-151719:0.256349271
T_0262level1_with_size_0:adcf4fefcf86bd7d2ee3efaa321e84f6:passed:20100407-131350:0.049863624
T_0263ass_missing_text_in_format:bd95477c9e13954a02220c5e306cff51-a61282e47789865563878c33b90689c7:passed:20100411-181436:0.08481106
T_0264avc_es_from_lavf_with_native_codecid:fcb5f6540463a4d74d694082729a80b7:passed:20100427-123025:0.113031166
T_0265mkvinfo_clusters_with_unknown_size:850e2df249cf836ef9777c1f1e915518:passed:20100522-213708:0.070457035
T_0266mkvmerge_clusters_with_unknown_size:7ad25c0cfa624c0102e2dfa6b6a2fed6:passed:20100523-154308:0.513856747
T_0267mkvextract_clusters_with_unknown_size:b994ef83db70b5193696121cf1399adf:passed:20100523-154920:0.151236551
T_0268X_vp8:4c87a179863ff43cf03cea5fe783f2a0:passed:20100527-140446:0.146660573
T_0269X_vp8_without_default_duration:b856286cdf487bbe617676516e786cd1:passed:20100527-143214:0.347118895
T_0270ivf:a5183f14fedb32eb274699970fac6022-390a7bb7ebb8820c724c05e7c14159e8-cf147959548cf91ddc73b7c38fa48867:passed:20100527-145644:0.589767944
T_0271ogg_flac_1_1_1:dd9144f40e1f96ad4504e822eab759ae:passed:20100528-150526:0.059022557
T_0272dirac:3bfce05610d3c572fcb34e6e4a6fa643:passed:20100530-144232:0.242360317
T_0273pgssup:1e852a4a5ebec081a91853825243a82d-1e852a4a5ebec081a91853825243a82d-dbba8798fb51a54a748a0a5a7a85f452:passed:20100618-122332:0.213283366
T_0274h264_in_nalus_in_avi:dfcc6005b36001c2abb156b73a8a6478:passed:20100629-090725:0.048849118
T_0275srt_mixed_eol_styles:774cd5eb8f6578923857f5af53e7785e:passed:20100706-090848:0.133304466
T_0276h264_without_nalus_in_avi:940d40f887406b5b162f97552a48592c:passed:20100706-224102:0.173656992
T_0277display_dimensions_fixing_aspect_ratio_usage:d17f45d69224ce66d1eae5fa9bdce2b3-70375f47dfa7e73e0a693a7fdd8f7e48-5dd806b38854e7397a70002cd8ac3312:passed:20100718-201627:0.96614962
T_0278turning_off_compression:16a2075fb65cb7503cd3cd5f38e0a9bc-16a2075fb65cb7503cd3cd5f38e0a9bc:passed:20100728-121842:0.729629648
T_0279packet_queue_not_empty_ivf:ae48f91a46228f3250bba1c2efc689fa:passed:20100805-230439:0.074363649
T_0280replace_one_byte_with_ebmlvoid:534413c422857270cad77d5ac0bc8500:passed:20100824-201249:0.179358227
T_0281idr_after_non_idr_not_recognized:9d21a31454eb306789cb85efc9c92989:passed:20100828-194029:0.202062261
T_0282mkvextract_error_on_non_existing_file:true:passed:20100901-230139:0.038224395
T_0283no_video_on_avi:e9efe6f89dc2acaf5e3920b425f35cb8:passed:20100919-111902:0.13081448
T_0284merging_chapter_editions_when_appending:7b81ca0975f03b24cf2bb10d0a336468:passed:20100919-234941:0.882726381
T_0285h264_misdetected_as_mp3:fe422b75bbb2fee343df9f3c4ab0e1ac:passed:20101031-105119:0.062295026
T_0286vp8_in_ogg:8c3a258ac41f93cd22fb1e93b0f114e8:passed:20101222-113225:1.930146299
T_0287mkvextract_exit_codes:2-2-2-2-2-2:passed:20101222-120655:0.249656191
T_0288identify_files_by_amg:26ab0db90d72e28ad0ba1e22ee510510:passed:20110308-151817:0.098896233
T_0289wav_unsupported_formattag:3:passed:20110314-133958:0.039715004
T_0290seven_bytes_aac_codec_data:88ab6bef1be7bbeea3e4902717e24271:passed:20110415-123546:0.339085207
T_0291waveformatextensible:wav-avi:passed:20110415-124159:0.132232099
T_0292avi_aac_706d_privsize_huge:4cd278b98ff8204838ea4241d71a68b0:passed:20110422-152313:0.111661929
T_0293aac_adif_misdetected_as_video:3:passed:20110426-091956:0.038487756
T_0294vobsub_negative_delay:b2c98d7dea616ce150950de044ff25a2:passed:20110523-204847:1.82183818
T_0295vc1_rederiving_frame_types:dca969d65447c3f0728aff87dac0c6c7-09d0099148455382f1a384458148e129:passed:20110525-205715:1.423762695
T_0296video_frames_duration_0:d41292e6bd278e0f383b36bfd95a5913:passed:20110709-143914:0.29191651
T_0297mpeg_transport_streams:abc830cc7855b52ee378dec8ae778875-e7ede10c4d5ed13f88e2a63032bf053c:passed:20110913-112636:1.717430515
T_0298ts_language:+eng+eng+eng+chi:passed:20110915-221140:0.04922838
T_0299ts_ghost_entries_in_pmt:0_video_AVC_H.264_MPEG_4p10_5500_1440x1080/1_subtitles_SubRip_SRT_eng_5503/2_subtitles_DVBSUB_eng_5504/3_audio_AC_3_eng_5501_2_48000:passed:20110917-004553:0.069267428
T_0300ts_dts_duplicate_timestamps:001a487bfe86c5ca79ed8ee7f903b483:passed:20110918-154508:0.327563709
T_0301ts_pgssub:97ffaf2dbc4c35e9fbd028524dcf9953:passed:20110918-154732:0.269278857
T_0302pat_pmt_only_once:0f87ed60886e6b592c33475f360668f1:passed:20110927-222121:0.158995945
T_0303mpeg_ts_eac3_pmt_descriptor_tag_0x7a:0_video_AVC_H.264_MPEG_4p10_220_1920x1080/1_audio_E_AC_3_qaa_231_6_48000/2_audio_E_AC_3_fre_230_2_48000/3_subtitles_DVBSUB_fre_240:passed:20111008-150823:0.059979482
T_0304eac3_pes_private_but_no_pmt_descriptor_tag:5eed451fce1596e143bd7a145ac9ba4d:passed:20111009-113137:0.558107617
T_0305ui_locale_en_US:23026ac2ed9767541e89f2261bcf8b60-0136434e2e22ebcc806ee944cdd2b853:passed:20111016-192531:0.080941467
T_0306ui_locale_de_DE:5c2281373b0f5d9d7145cca6b2391db7-fe29d5dd8da942a9deb4aac92b2f0514:passed:20111016-192531:0.077156564
T_0307ui_locale_es_ES:3f230a5da62a4650a8874bde6cb3c0e7-343c6efff52830d0484900df270904fb:passed:20111016-192531:0.081922783
T_0308ui_locale_fr_FR:b766048d8d59cbd160a7218ea76873bb-8f926266b31c591810d92b84e2bbaa81:passed:20111016-192531:0.08508895
T_0309ui_locale_it_IT:a668340c643c0975e8df7977ffbdacde-77b6e7e8c32e689260f73dc7e0a2295f:passed:20111016-192531:0.07808351
T_0310ui_locale_ja_JP:bbd7198ee176df0a36ae6818471e4204-77e6f10efd219fb9ae9e79254cee32b6:passed:20111016-192531:0.08820715
T_0311ui_locale_lt_LT:23026ac2ed9767541e89f2261bcf8b60-0136434e2e22ebcc806ee944cdd2b853:passed:20111016-192531:0.075947337
T_0312ui_locale_nl_NL:df36526d5fccc2757166fc6cf2455060-82da9222562a7c5746bf76ec6ae82c1e:passed:20111016-192532:0.07276167
T_0313ui_locale_ru_RU:987e31110c77e62c592ace488c4d196c-4fc9b34008f1904490a9deb33c9666a2:passed:20111016-192531:0.082423426
T_0314ui_locale_tr_TR:6830d3427e56ec768545091fae78e1c8-bb9429ad44d4aaa0b62095eb9d114145:passed:20111016-192530:0.078641054
T_0315ui_locale_uk_UA:2ebc5b0a91b22727c89c8c64776fe851-4fc9b34008f1904490a9deb33c9666a2:passed:20111016-192532:0.081856623
T_0316ui_locale_zh_CN:0c7cafa82140063d23fd51941bfe16b1-399cd00f7f8a16f553c448c97b560a70:passed:20111016-192532:0.093747002
T_0317ui_locale_zh_TW:63e6d6c33f4795939f1b28a5f7fdfdc6-7951e32550f6b30fb561b63f03c818dd:passed:20111016-192531:0.077238066
T_0318ui_locale_invalid:ok:passed:20111016-192531:0.030997723
T_0319wav_with_pcm_detected_as_dts:f97c2bd991a6b724647e0676b2b5a281:passed:20111016-224416:0.055659719
T_0320ts_aac:cb5d1ff9a12574ca02fcd1a0d1c79c6a:passed:20111022-140411:0.177593776
T_0321vc1_without_markers:91b4aeb6bf4284fe2e85a194a68c12d4:passed:20111104-003839:0.314819754
T_0322propedit_track_headers:785209f2dc35ad6177bea2ca6e43198f-5a41a18fe2b32f4fd1d7ab6f589b69a5-a69ea7d9d0497c69525bedb96a1ed16a-46a62e98b3c85112bfce3a463446d2e1-2a01b584145b388d79d3c2a45b26de17:passed:20111203-152145:1.270258132
T_0323propedit_segment_info:785209f2dc35ad6177bea2ca6e43198f-0baf1cb46e7d365580b51aa4452551d6-d6cd21681b8544aa730744f128d46fd7:passed:20111203-152845:0.649668247
T_0324propedit_chapters:785209f2dc35ad6177bea2ca6e43198f-a9255d40de93e2731aaead0a746e582f-5b1e9368f759a811a73dd79ce3ccce85-9ec8b77c5b0e9da31d6af9450a85b23b-37678bf46f2f2c2028ea8ece4c72618c-a80d32b492b377bc5aad4544371b8aa5-884d4c964b21cdbe52ea4c3dc2e5fc86-719f8fb146bf6a2c75a8f60aa2b07ed8-5aa640f146966af8b53456ddfbb999a7-d41d8cd98f00b204e9800998ecf8427e:passed:20111203-154502:1.466618999
T_0325propedit_tags:785209f2dc35ad6177bea2ca6e43198f-26ad4ab0491d76d9fb6f57b4a4b35400-f314c4948ee7e100d8146dd6c245bb50-82b6204a7a40eb04e02a39c12701bc78-f314c4948ee7e100d8146dd6c245bb50-82b6204a7a40eb04e02a39c12701bc78-309492d70041c0951917cc2cd259025c-a0e90a69cbf7c146e9f57856fa73a7c9-359db5672e277330516645805538e063-ab92f663ade7637d70a550031094c332-359db5672e277330516645805538e063-ab92f663ade7637d70a550031094c332-13716ad639d7cbc0c0658f24e8eb9e61-2d07c984fa03e661df7d8454125993f0-36c99a98a4e96259c8f24fb56387a655-d41d8cd98f00b204e9800998ecf8427e:passed:20111203-160727:2.590156297
T_0326mpeg_ps_mpeg_audio_layer4:bc5434fb0c2cb978a45f6325c5104248:passed:20111207-224511:0.39390451
T_0327vp8_frame_type:fd01e91c021cccc87b896e77707d6f97:passed:20111207-233304:0.122927824
T_0328dts_detected_as_ac3:ac5d8534efaee30109825ca3e847e651:passed:20111229-192324:0.072298647
T_0329X_timecodes_v2:51d1e61178c7fa2b654d1be71576113c-473bb854441388700e42ee8b4d21c61c-f531fa64a457eb3204e8f09235b039ed-646b73b730d4bd09d13a56bc861ee659-409743510ede469f8d2bf1a098ff36f8-473bb854441388700e42ee8b4d21c61c-4473fffbc0dec00c3955f861a6880b22-3b3c2e7c2470ca550acb1e913311daef-a80f23069cd692e2e8700a6729d6d290-c04e13b7e74a8d6ee694ea2cfba79009:passed:20120105-202451:3.588119713
T_0330dts_detection:e0cfb1c8f4f52d330f8acded6411e855:passed:20120107-210130:0.257467676
T_0331read_buffer_underflow:aea623d0e4e1762725d73469d5210cd9:passed:20120125-232902:0.272339965
T_0332eac3_misdetected_as_avc:8941b49cf758bbf984346839add68640:passed:20120131-145550:0.07302103
T_0333wavpack_with_correction:debd8432ce7dd4d9de111f8d43d0d159-e33897409384ca5fd8ed5e497f8c3883+37f802510b43b2ab4bd7d8356a7ac606-ok:passed:20120131-164845:0.229940485
T_0334mp4_audio_encoder_delay:ad75e077efc53006dfed7d9eb6021473:passed:20120206-100443:0.129324062
T_0335ui_locale_cs_CZ:71fab8df9e8e061badc87c06cf36f544-a37e1bdc2b0c026c2970c08841c5e4df:passed:20120206-191406:0.096605328
T_0336pgs_misdetected_as_dv:5d06a530451d6834661657d022fde221:passed:20120222-121642:0.067714619
T_0337vc1_es_sequence_header_not_at_start:1f530e11c4f062ece0a84dc11cdcbee4:passed:20120222-140257:1.238629784
T_0338h264_width_height_pixl_format_non_420:c6832b03e975ffedbf5a1965a9795533-ok:passed:20120222-153143:0.258965326
T_0339eac3_dependent_frames:09e8c81243efff4600b4e1c9007cf325:passed:20120226-133623:0.09002012
T_0340m2ts_interlaced_h264_timecode_every_second_frame:83a134ec1d103c1c31aa0b205ae0d401:passed:20120304-163131:3.561128773
T_0341vob_interlaced_mpeg2:4d5a65ab6fe3be03d6dec5620d89e3da:passed:20120304-163313:1.461073085
T_0342m2ts_interlaced_h264_from_arte:7bbf6b6ba43d8a339aa2d5cdaac65379:passed:20120304-165917:1.301366284
T_0343m2ts_interlaced_h264_match_of_the_day:fc5af88ebc4b22d78373d58ff42b30f7:passed:20120304-171453:0.88967291
T_0344microdvd_recognition:ok:passed:20120304-175209:0.042130248
T_0345flag_enabled:65a601248651ecce908c141e80ffc251-8fd79c4da7db18578812b9be1a1558bd:passed:20120304-181150:0.322629461
T_0347h264_misdetected_as_ac3:b55795c84e74ae2f91b5b939a60f1c1a:passed:20120305-160017:0.090632663
T_0348srt_negative_timecodes2:081e3f723279832d31daee0d4a1b24e8:passed:20120307-115726:0.0984301
T_0349h264_interlaced_default_duration:f3d8dacaa376d8ab1603c5547908a946-22549449247e2557b33f829762bf4e98-22549449247e2557b33f829762bf4e98-d4798b0561f50cee491c58208772f1b8:passed:20120307-184849:0.961429392
T_0350h264_progressive_default_duration:8b521a4de17cbba5b2fe19844241c83e-ede664675424121e24815ce14ddecaed-37d8a76095f0729f47bb40189b7b0825:passed:20120307-193604:0.804958611
T_0351h264_vfr_with_timecode_file:5453c01d7699ba72f3135f2531779156-29aa49ad8e5b00352f16790341072cbd-29aa49ad8e5b00352f16790341072cbd-29aa49ad8e5b00352f16790341072cbd:passed:20120307-200246:2.586433563
T_0352timecode_scale_auto_libmatroska_assert:db3f92944d2552132df1e7e6b084e4c6-db3f92944d2552132df1e7e6b084e4c6:passed:20120308-083800:6.110334097
T_0353ac3-from-ts-with-missing-tcs-with-non-zero-first-tc::new:20120312-134345:0.0
T_0353ac3_from_ts_with_missing_tcs_with_non_zero_first_tc:f5c7e38afdc3d4fceeb3189ce9b68f36:passed:20120312-134456:0.192855875
T_0354h264_60000_1001i_def_duration_60000_1000:6820104200bdf012256a7553b69fb41e:passed:20120314-090846:0.068793095
T_0355chapters:fbd5e4a7c1e52b3abd7a75724edd074d-67f9bd246e04f7daf656b8765ce28ad9-7ea0e18506ab399866b699d0c4d6cee0-5989e1933c6cd2abc789e0e38bdc7a16-d7fe3161c0b8d8571add07d1aa249f57-ok-ok-ok-ok-ok-ok-ok-ok-ok-ok-ok-ok-ok:passed:20120324-121601:0.982813659
T_0356tags:34e54251097397ee9294ffc754830eaf-af6f00765d1fa0931d19a7e4ca3d12d3-ca42a4dcc3034b3482c5500415422f61-2411d4e9b51cbe36572e466289ec1b3c-ad41ec10dbf225539fd67d60fda094d8-0a592784c04e4208d08849175cf94238-6c73a1f0264063ee997f51490703ac31-ok-ok-ok-ok-ok-ok-ok-ok-ok-ok-ok-ok-ok-ok:passed:20120324-121752:1.189312925
T_0357segment_info:101f226ae7b27f5fc7c97003a9635390-fd1881e976054c85367e2a31064caff8-ok-ok-ok-ok-ok-ok-ok:passed:20120324-122844:0.475716244
T_0358usf:8b0b6c9d676ed480c4dd9a5b1ba6baeb:passed:20120329-142144:0.05084588
T_0359split_parts:a35b658924270c915a0ac4fd392a9585+e9083fc0d1ad7700cc942ae78d5bc3d6+ok-1b5f268a02d9600a991042348d1ccda3+ok-96a6d9de773b93c7b1c4f81f77d5788c+ok-e989adc5bb4d8a7eb452974523675a00+624ea4031a7d91fa877d1accd93d1916+8c02ab321080b01218a020b5460279c4+22694ac41fe0e893afa03f7480e6c3a1+70285c24c2f12a38561d7c9d47f61bf7+27299e751b602b4f9e8c76d7766c304e+2e46c93a95a6bd8227bb62df300d79e0+ok-c23533eb4077bfd28d8206b59785b81b+ok-592a94544e4f40e46ac17280b84663d9+ok:passed:20120331-133448:2.332499559
T_0360X_chapters_hex_format:7ea0e18506ab399866b699d0c4d6cee0-aae3e24614c20119bb416301c3da5c7b:passed:20120404-152038:0.099092274
T_0361file_concatenation:VTS_01_2.VOB+VTS_01_3.VOB-e0916a78f326d75e8760465f71a751d6-e0916a78f326d75e8760465f71a751d6-ee2f07f2683b0919126a058b0e0073d6-ee2f07f2683b0919126a058b0e0073d6-ee2f07f2683b0919126a058b0e0073d6-d337de08d99c5aa755198c61c754599c-9e1cb6eeada264ce87fb3aecd3e523e0-09f753651bd8d38da97d199181126156-09f753651bd8d38da97d199181126156-09f753651bd8d38da97d199181126156-09f753651bd8d38da97d199181126156-261ed3a639358a0fcdeb9ae3f303a521-2b5a6bfe215e6c67fd9b668421045203-abc830cc7855b52ee378dec8ae778875-abc830cc7855b52ee378dec8ae778875:passed:20120406-144928:3.327094415
T_0362xtr_avc:f3d8dacaa376d8ab1603c5547908a946-49ae33bdb1e43de90886bc2ac6410c35:passed:20120416-153515:0.322147148
T_0363srt_colon_decimal_separator:3a358fbc2721e599738e2279e2bfe78b:passed:20120520-180625:0.044307942
T_0364qtmp4_track_with_empty_chunkmap_table:ca50f99156f5fef8aaddbae0b2c95381:passed:20120605-223925:0.171457229
T_0365qtmp4_constant_sample_size:efee920d0f3d9ffe834c6bea180152c1-83558948fb4413a38659dcaaea5a86e7:passed:20120605-230823:0.863321194
T_0366srt_with_space_in_timecode_arrow:b1a3af7e800ae1c49617607f098584cd:passed:20120801-132204:0.053007932
T_0367vob_80ms_delay_by_b_frames:27c843eac5700ef9714b7bcd37e428da-1c8901f0622d5f4fc0f639a3b680dfeb:passed:20120801-182507:0.116235015
T_0368alac:9ceea11ad9723d72f7a945981744be24-ef613fe26755b88e76dbb44e6a29c726-9854d1b18d9c3a89a8e5974726293fd3-3fc7308ef86e882e1bf55702bca86430:passed:20120805-160128:0.437055964
T_0369mpeg_ts_timecode_overflow:c23c7fccf814ea923237cac18479c9a9:passed:20120807-120810:1.172529145
T_0370propedit_attachments:4d48a3c824a1a353cbef8ebfeb4be206-4d48a3c824a1a353cbef8ebfeb4be206-ba7370ca444ada04c67edad0d3596ee7-4d48a3c824a1a353cbef8ebfeb4be206-ba7370ca444ada04c67edad0d3596ee7-4d48a3c824a1a353cbef8ebfeb4be206-ba7370ca444ada04c67edad0d3596ee7-4d48a3c824a1a353cbef8ebfeb4be206-43b6baa61fe771b4ec84acaf7325e658-4d48a3c824a1a353cbef8ebfeb4be206-3b6327fea3bdec73e1653f62d008c268-4d48a3c824a1a353cbef8ebfeb4be206-1e1cff0e3ebb3676e0a0c4c5de83b36c-4d48a3c824a1a353cbef8ebfeb4be206-87e0358b79b2c2a10717991949a39884-4d48a3c824a1a353cbef8ebfeb4be206-6b68dd3018d73507e4088e74ec9842dc-4d48a3c824a1a353cbef8ebfeb4be206-785f42bf01f0353e676faf08ac92310e-4d48a3c824a1a353cbef8ebfeb4be206-d024726361e61e56f89eb4c57387aefb-4d48a3c824a1a353cbef8ebfeb4be206-d024726361e61e56f89eb4c57387aefb-4d48a3c824a1a353cbef8ebfeb4be206-d740329e1fa69c21a0383d786c7eec19-4d48a3c824a1a353cbef8ebfeb4be206-6defc36156fc00f34ad1685168a04284-4d48a3c824a1a353cbef8ebfeb4be206-b66882768a44a04e3025320fa0582cb4-4d48a3c824a1a353cbef8ebfeb4be206-b66882768a44a04e3025320fa0582cb4-4d48a3c824a1a353cbef8ebfeb4be206-27c5f74e032fb75417c6f466e7b09266-4d48a3c824a1a353cbef8ebfeb4be206-e9272cb4ea5935259ce907522e3fef5e-4d48a3c824a1a353cbef8ebfeb4be206-e5ec2d13b841ae59a61a3b0e9403a78b-4d48a3c824a1a353cbef8ebfeb4be206-321bb2bb0063c5090961ef2197988eb2-4d48a3c824a1a353cbef8ebfeb4be206-08087eec8c06f5a9a9c5a8f24dc57645-4d48a3c824a1a353cbef8ebfeb4be206-a8c79d7b9a2293fc562ad4fb10c81177-4d48a3c824a1a353cbef8ebfeb4be206-4272a7edcda281583f760e846b3cc2a4-4d48a3c824a1a353cbef8ebfeb4be206-c598832fde44370139a21f2b41a4f766:passed:20120902-110003:2.528270292
T_0371doc_and_read_version:4+2-4+2-4+2-4+2-4+2-4+1-4+1-4+1:passed:20120927-110447:2.276056215
T_0372ui_locale_eu_ES:cd0927f0c4248d14b97336097ee36c2e-8ef1b15c1dcfa5a888fab14cdeec0cda:passed:20120930-150340:0.070503686
T_0373reading_linked_seek_heads:71c48f276c5223c39b8b841e0d051831:passed:20121202-120608:0.286107675
T_0374extract_chapters_with_ebml_void:ok:passed:20121202-173807:0.064994592
T_0375keep_pcm_timecodes:88730229403fd5c1756823ba67feff2e:passed:20121208-154352:0.211568368
T_0376append_empty_tracks:12847bf1ef98b4c8b0e482f37e2f1e7e-a37cec6e0cfd6af6d6fa808c116c859e-321ec003e89eef4d5ebb57b24a959c05:passed:20121208-190510:2.061997946
T_0377mp3_skip_id3_properly:6d292f32e7f5f99791b6d5b9ce3111b9:passed:20121216-212310:0.064033007
T_0378deprecated_iso_639_2_codes:hrv+rum+srp-2c5385ee0a115d95ad34b99542a3b2f6:passed:20121217-171624:0.096870722
T_0379flv:0f74db75d62ff127f6f219f7a1fafff9-51d6a75c73c79912b73a296e0041b138-9a2040b8d641cbc2874b1450430bcca4-51d6a75c73c79912b73a296e0041b138-705147411d357b77dfb79338e36ed1fc-148a24f7fa884351ce143ddd056fa5f7-f7385cf8379ba08b08e71708c97101f2-148a24f7fa884351ce143ddd056fa5f7-45e6590fbb53257cfcf2718245468822-974866e8fbd153196c4748fcc0738d0c-7e30abc3f3182221f6811daffc33fe18-974866e8fbd153196c4748fcc0738d0c:passed:20121223-134722:2.756877638
T_0380split_frames:1d6cc33fc06ed4a7c9bac8edee17d3b2+d4f87951c8d1c1ff053c9fe4ad2f312c+ok-1d6cc33fc06ed4a7c9bac8edee17d3b2+d4f87951c8d1c1ff053c9fe4ad2f312c+ok-1d6cc33fc06ed4a7c9bac8edee17d3b2+d4f87951c8d1c1ff053c9fe4ad2f312c+ok:passed:20121223-232902:0.83181061
T_0381X_alac:9854d1b18d9c3a89a8e5974726293fd3-ed3dd47220947f8130974268f0af281d:passed:20121225-133740:0.107668003
T_0382split_chapters:0fc8bbb46e2fc0c5318b00b96338b5b9+50132a48fb18aaedcc8726d538187114+ok-c74bd7d7006c188f1c78a94a6d0595f2+e931abd383db759404f0458628f30023+ok-c9da57d296325159f6234152a7cbde0d+2639eb98da08309b9e6e15cd2d490d78+6d11b3830698e262f703a23341dd58fb+956f5c5d74f041587125bf69b364389d+a0934e56598a0f14e78a4c1499369e61+507c62f998783aa8a0ad2eccb72945bc+7f3b62f161496f46ddee9fddf2decd52+08aa5c1931aaadab576df299773266aa+89e05c29b13807541ce2db6419aba8fb+dc3c118019f82361f3eb79c9085f6918+7433170b25895b570cbc2ebe86bf5141+478a31da1c65c464957fc29b218b3df8+54a2be430daec580f51a853d3cdacec2+a750d775e2bd8127d07fec0ecdb6e432+87d6fa14df3fc9c82d6331b002b53a68+42d7a12bba1ebf3e3aee56eea9399f57+d27966e01f76e3dbbf9807b618afe8d8+ok-1dc60fb0e1eaae2b5d20d188077ae720+f5005d93773be027113e317e00466833+53ecefa228fdd7887d437e57b42004cf+2c228a70bee6f0fd8b770f9ef2a998d2+7865a9547616882acadc6d061d968b88+a0ecee97e5c98944705a7c45d498d9cc+b3795eb250ba50df9852e5c80c85b214+2217a36e827b68fa434b6c826b80d212+b1e7ab36bc6be6be62bc0206de0d9ab4+013ef9d76a823e6682a20841c833c1ce+641fc5d6f0851eb044681bcfe4828e15+29469a9758a752ad5284c17e3d2df585+e84ca869f2dc8f93bf2ee119ad5b7116+92c48b17922431eab02f980ce8bd9978+c8c58a491d3127221f77e9f4681a9b77+b38bec56df195bb6fe1fe551b987722e+22b59c24a3cd3b965ba37c437441156f+ok:passed:20121227-202501:1.646075125
T_0383mp4_text_track_subtitles:bc285f7facc19ecc1e64eaa750c82792:passed:20121228-231519:0.119739556
T_0384vobsub_in_mp4:88f3b8e30f6d170d2badee67c5e3bad8:passed:20130112-201109:0.944491122
T_0385split_parts_frames:a35b658924270c915a0ac4fd392a9585+e9083fc0d1ad7700cc942ae78d5bc3d6+ok-f323d2978c308d885440fe1cbeb45c5b+ok-93b228b2c9f0a3b236fd502518372c66+ok-8bf53aeb2f590d7759b3f614a1489e63+ok-9b7e2cd476dacce9d6b27346ed319292+ok:passed:20130114-224502:0.995170592
T_0386flv_vp6f:bc0f0422dcf02fc4d9c3b8c6623d400d:passed:20130121-223417:0.386809219
T_0387mp4_free_invalid_size:4c72f0e7a6dc3a03578d75b648bc0383:passed:20130216-003333:0.059110418
T_0388split_parts_and_chapters:1e771d6aa2ef3b934d02c36b6715dee3-442a57d6367e8f884c9c1f4b69a9e2e8-5a32823ba4fb1fdd9ade235f44f8b5b9:passed:20130216-203522:0.567824775
T_0389mpeg1_in_ps_misdetected_as_avc:d878b9648a3c11edc6c3d8198634c9b5:passed:20130224-132738:0.444866821
T_0390timecode_info_on_resync:BAD+BAD:passed:20130318-185621:0.268395002
T_0391fix_bitstream_frame_rate:b4b09b3574fda7470d6768c198a9cca5:passed:20130329-114522:0.175326832
T_0392avi_audio_chunk_size_0:8deda2cdb23829457660ed0b173b8bef:passed:20130331-134751:0.600121613
T_0393aac_audiospecificconfig_0channels:9089cb33e951d48b0774823783cf7270:passed:20130413-214142:0.064833422
T_0394flv_negative_cts_offset:af28fb60122d648f1ad6884f6c4cbbed:passed:20130414-115331:0.301378675
T_0395remove_bitstream_ar_info:595cd319da3e51f66ebf3a1c83addab2-d676aa03e1280cd3a2b9b6d261708d16-13b12b2a1ecdd5595d63d3ce4b1239f3-dd683851a561b3714ca61805a9252547:passed:20130427-171243:0.561364417
T_0396X_pcm_mono_16bit:95057ffa66cd4ca5faf764826159f4ce:passed:20130624-200214:0.067099745
T_0397mpeg_ts_broken_pes_track_detection:78abeecfc166098ec6d44ffd1905a982:passed:20130624-220549:0.316734536
T_0398flv1_no_pixel_dimensions:94b66f04460003515435c7f28e4d1003:passed:20130624-225648:0.2104438
T_0399h264_append_and_default_duration:206936a265badb9e29dd0cff377a7f58:passed:20130627-195946:1.204478603
T_0400opus_experimental:08c93f858f9ab05cfe8e4cc0cd57bdd8:passed:20130703-213929:0.111009464
T_0401opus_experimental_remux:7e2f84f48e970914d87aa425ae74f262:passed:20130703-213932:0.130261598
T_0402opus_output_order:29b7af67a00198d20e1d31bed7e2cf4c:passed:20130705-115856:0.233979648
T_0403opus_remux_final:78ab28e6941662399ad28b6021e4da7f:passed:20130705-135811:0.120709181
T_0404opus_extraction:0aba264a50870d5cd62d8d12543898bd:passed:20130915-201931:0.065946799
T_0405packet_ordering_and_default_duration:316ffd6093f99474091e2dbfab33f52a:passed:20130916-211719:0.420985471
T_0406ogm_chapters_ansi_encoded:d5af66af2b582a7a73263d9fb155a40a-f2dd3608a959534cdc089881bbe267c5-6feac827501cfea8d3666b5bbc7c10de:passed:20131002-230255:0.42100596
T_0407empty_tag_and_chapter_files:error-error-error:passed:20131018-202312:0.15431096
T_0408utf_encodings_with_bom:978c1dc3a889fd9f34e9e104953fb8d9-978c1dc3a889fd9f34e9e104953fb8d9-978c1dc3a889fd9f34e9e104953fb8d9-978c1dc3a889fd9f34e9e104953fb8d9-978c1dc3a889fd9f34e9e104953fb8d9:passed:20131019-155216:0.284834238
T_0409mux_vp9:cb7517e4ce6a45979975bc3d2672b58a-61d6e79f822dcce1e3b5b26c47497b2a:passed:20131019-195820:0.109288393
T_0410extract_vp9:e3978b967924105c21a43c5f617e9ac6:passed:20131019-200643:0.042153698
T_0411ui_locale_pt_PT:7378e1146862dcb96f11caa91d33c5cb-344b51e9ae6fe2d8ce60fef18ee0e7d1:passed:20131026-154124:0.08497827
T_0412ui_locale_pl_PL:5d790fb95cbc647fe5cec87e7618758a-93a2fd965d92b40b7ba59a037caca0b3:passed:20131026-154845:0.074276837
T_0413memory_resize_nonfree_smaller:fe7c4207e2e5fac383a4e29ffc55a86d:passed:20131102-115507:0.088756314
T_0414vc1_no_sequence_headers_before_key_frames:2885399c5c2f7a4d239e661352d5edc4:passed:20131115-164756:0.105180258
T_0415create_webm:58afb4b0adb121bb0f2bd371fc2cf713-963a3c317da28f179b9f7ef2dc041298-3e82646e5d223066440973bb410333e8-f6400e855db0b303a5170a755f749ee7-AAC@ok-AC-3@ok-ALAC@ok-DivX@ok-H.264/AVC@ok-Dirac@ok-DTS@ok-FLV@ok-MP3@ok-MPEG1@ok-MPEG2@ok-PCM@ok-RV4@ok-SSA@ok-PGS@ok-SRT@ok-USF@ok-VC-1@ok-WavPack4@ok:passed:20131218-221942:1.604841422
T_0416dts_in_mp4:8e6c717f2fd491588dc95501f0377d95-f1a2e70361b0201f8e9b3cb78ec8a154-ce4d2ce661ebeb6996377416865ad4f5-true+false+true+true:passed:20131218-231435:0.827312801
T_0417mkvextract_tracks_at_end_of_file:b3bb67d316e20da12926d5c1d628f6e5:passed:20131229-122704:0.113007796
T_0418ac3_frame_size_0:6f31d9a8dd895a4ff5cc23741d6e649a:passed:20131230-233047:0.695019733
T_0419mov_pcm_sample_size_1_sample_table_empty:ad4597895e6e8aece8a92b573041e744:passed:20140101-221519:0.144361411
T_0420matroska_attachment_no_fileuid:3a1bd325c17802ed01086d4f11472b1f-552b6bfab098f531c54131dfc76eadaa-d656255457340062c91160fc962f249f:passed:20140111-200918:0.17171692
T_0421svq3_from_mov:414a24695b20f8e8ab0fd54c46659960:passed:20140112-124559:0.414694673
T_0422ac3_rederive_track_parameters_from_bitstream:3cb1b54e38f103d2e6343f5a89f088ec:passed:20140215-162358:0.521427073
T_0423deprecated_iso639_codes:12c4f8f4b5593bbb4e1418c2664aa766-good-52496289c96568b561b0e6cb71cb6877-good-30949b71520e61f6efbf340042dc7476-good-4f97daf7b860d2f047f390c976ca8bfe-good:passed:20140222-185414:0.46010222
T_0424avc_recover_point_sei_before_second_field:eb69e6424c1a154df5eb358daa326271:passed:20140304-190254:0.39385223
T_0425mpeg_ts_timestamp_outlier:b7dab6d6d0aeb037eb8900f4d8a8d052:passed:20140305-203603:0.670819411
T_0426extract_write_bom_only_once:a9255d40de93e2731aaead0a746e582f-a9255d40de93e2731aaead0a746e582f:passed:20140310-195606:0.081261359
T_0427ui_locale_pt_BR:7db9ee7a6cbd3b9529347fae73b87460-d560565fe266e0f4d238ac4ee3ee0f19:passed:20140418-103113:0.090649924
T_0428mkv_misdetected_as_ass:c01fdd807880b451a1c0afcb0b3271de:passed:20140518-155446:0.064731871
T_0429track_statistics_tags:36504bb29dcc406dfe1cd3f02e05866b-6ca7b0d45991365970165cf227908726-8fc8e87997b2ead82741db8960b0e8a9-768e925c82a6f0434e7f22993360fb00:passed:20140524-194544:0.930943965
T_0430cues_multiple_blocks_same_timecode:30eab731014436c498e95160a7a52a27:passed:20140525-173642:0.050043495
T_0431ssa_comments_exclamation_mark:9554120f58903780b522c22bd0d2b43a:passed:20140618-232324:0.108101896
T_0432concatenate_two_ac3_files:804a65404c70a8eb7396d6ecb5324d7a:passed:20140727-124637:0.130524999
T_0433matroska_no_track_uid:6df4c5df5e6dd194191518ad071a4cca:passed:20140809-211544:0.050839039
T_0434mkvpropedit_no_track_uid:99631d7c0f79faf45a37696dae506b21-1a97554c50c754b3de2aab56e29e004e:passed:20140809-213018:0.077337146
T_0435mp4_edit_list_duration_uses_global_time_scale:83558948fb4413a38659dcaaea5a86e7:passed:20140905-183027:0.160908108
T_0436extract_ssa_extradata_after_events:328b5a3024216b6dba05f9e5b7655464:passed:20140906-090602:0.087046423
T_0437ac3_from_avi_with_garbage:ba28f3569b0a5b448059799e858e0029:passed:20140908-144311:0.071942645
T_0438pcm_in_vob:db9ecdb578accf308f38645578fce34a:passed:20140917-213731:0.319037458
T_0439pcm_in_m2ts:efe88f16f1abce6dd147cc8cb90ebc8e-4a2ae720a6e81c91ef38678c86a0c211:passed:20140917-222633:1.352387234
T_0440chapter_display_language_default_value:5694eee8250b3adac302f40468c9c30e:passed:20140929-142306:0.042982133
T_0441mkvmerge_mp4_big_endian_pcm:80208af0e40b4693b14662c50d6f151a:passed:20141104-190420:0.94217711
T_0442ui_locale_ca_ES:e799c32fad802af9eb581be621be42e1-efc218c7d73104f27e852a4d6b66412e:passed:20141105-201811:0.085124612
T_0443hevc_keep_user_data:59e4349cb6f6934da01c67e9caf624d8:passed:20141105-202533:0.191547198
T_0444pcm_statistics_from_packaged_sources:eb7db0de497c9b6d4eb010598b68675b-eb7db0de497c9b6d4eb010598b68675b-70e3f90af0e59bb539261d3950d55244-70e3f90af0e59bb539261d3950d55244-+++:passed:20141205-220805:0.841764638
T_0445teletext_subs_missing_second_line:abea329b741c1544fb8062a70ac53a07:passed:20141210-224823:1.706118809
T_0446mkvinfo_output:b59cf9a6aa368fceac25e3fe856fee7c-995937aadc1da23f1470554008099343-6d3e24785b998f8f84ff5d331d6c7021-7a01d6443aeb4c2b47f7e5d7e84dec93-fa5209fc67a5b84fe796bd364a00cc64-7d590caa83ef2fd88b371027578dd4e4-c5c99e9444b36fc10340b9dea516966b-131db4e7dbfa080f36bc53c48d2da664-fa83a34042551af0668756b04026f67d-e2e03f33e1dd69641a1e286afab3fe98-d973134fc1d48170b8783f0b1b32f638-ac5293a69a3e6b20d968ec58d87df5ae-a2d26ce78834081cd14eb27dfb477ec6-31d4a07b9fadba265889665a45918c39-f911a2c5524ba7e78de6c210a2879184-b6e946c3229627d31f75246559875bcc-038c66f5a96831bc8d29d58da840382a-b05c0bc757ca084ff8d6a436b600de72-47dcdf0da3afc4aca5722dfffb61b560-84a0de136c7956183120eabacbcd0917-7210c21d6108a09834e48557e31d8f50-ef4632b305e6b9d81d0aed68cfcc4442-65de27994ed47028f14189685bc74e2d-b4928d1b6883924051bac4bbe8687c4e:passed:20141216-165433:3.601785635
T_0447mkvinfo_rounded_timecodes:9ed6879cbd3a977f66dac73b98519f33-3ae00f30fa7122c199c2dbccf3fde84d-c284a50b49f9ece98f157fdec9b5430b:passed:20141216-172642:0.481508215
T_0448mpeg_ts_with_hevc:f47860537f811ea5acc35be694f2827b:passed:20141216-181650:0.40050358
T_0449segfaults_assertions:error-2bacc50e6e28fb2a92d2abf2583405f5-ok-2684a2b671068c517bafd3a2cfb2aaca-b20d746aafc5f877346261c85b14e416-1c4e1111152649c31453ad6792823bbf-error-error-ok-4939cf896eb1c9c9d4c3794625d8f685-d4c1e53453fc19a0c312a79e28096f5c-2684a2b671068c517bafd3a2cfb2aaca-2684a2b671068c517bafd3a2cfb2aaca-27e77e74c5180c3ea71c18bfbcdd6918-73a5bdca335a3447cf164a3e9ad8c166-27e77e74c5180c3ea71c18bfbcdd6918:passed:20141219-195127:0.3688434
T_0450aac_loas_latm_in_mpeg_ts:c13d66a34271e4c51154f2317b1c0ee2:passed:20141229-210738:0.189222384
T_0451aac_loas_latm_raw:34d75976935d31c10231f2ad0ac92e21:passed:20141230-155351:0.574265643
T_0452mkvinfo_track_statistics_frame_order:c6832b03e975ffedbf5a1965a9795533-af132e9e55b12f69fc64193d6e393ec9:passed:20141230-182428:0.367607856
T_0453mp4_with_hevc:e16cb5edab5dc2894a9b9c7c4f6e09fe:passed:20141231-125834:0.077886039
T_0454mp4_dash:5aee6d476223541652ac021383f78eca-285e21e892f5b4dd5f6e30ea2c4cc445:passed:20141231-214733:1.228713608
T_0455he_aacv2_ps:c75a71acb14774bc293ee68154bde031:passed:20150101-152553:0.138635857
T_0456tta:9eee7e8262ab1c9736ad1617bc31831f-a3f2a14c15e709027c05445ac91b0659:passed:20150103-140714:0.189034433
T_0457mpeg_ts_all_pmts_with_crc_errors:f6827f2534ed5a5f5da704303a76c8be:passed:20150104-133628:0.403035645
T_0458pcm_big_endian_in_matroska:782ebd2e8e336b4086b6470c8c178934:passed:20150202-193826:0.0662466
T_0459append_chapters_same_uid_with_sub_chapters:48c288c0ac58438805e7e5e60be70649:passed:20150202-214722:0.127756433
T_0460truehd:ec9a0af691b8e7708cd1ba761b8f3f1d-ec9a0af691b8e7708cd1ba761b8f3f1d-8658b7d4a59bf9899f376998e3711d85-2a11c193cb639f9bcc8476b7a52d20c8-38969fe119a78079e93e6c3ac1d26711-8658b7d4a59bf9899f376998e3711d85:passed:20150210-130114:5.871055446
T_0461truehd_from_mpeg_ts:b32b8ca56f0ae3059ef4eb2570d89ecb-950a414e4df04a02fdc574f98f486170-3ede20d538189e9cf62b0f6e456729c9:passed:20150212-134650:7.301405831
T_0462dtshd_reduce_to_core:e89c65af886dfbf206b1b6aea159f961-a3aab1dd84d029623a751abbd36a78ed-a3aab1dd84d029623a751abbd36a78ed:passed:20150212-223839:0.344162578
T_0463a_ms_acm_with_track_tags:784b7e1632c83d55db15356f0f383244-2cf08ec9e0c67f01a60ad77f0c81993c:passed:20150218-142924:0.212693642
T_0464mp4_mp3_track_sampling_rate_0:3e48ce57699dcb13e0790ce589efdc40-fe104f05cb87d6e2c2f24889fe43e1e6:passed:20150223-190257:0.162516245
T_0465propedit_gaps_of_130_bytes:9dc6a3c29c30c29a5195e2a576a2f642:passed:20150223-210006:0.103298949
T_0466mkvextract_avi_8bpp:2327a134fc9d96098b29af8f69bdbf1d:passed:20150223-213412:0.053319533
T_0467mpeg_ts_eac3_type_0xa1:9d258865ec77239fab8180f86e2d1caa:passed:20150223-221854:0.376020974
T_0468extract_cues:6b0d03e54464c924dbdae611f1a0ca20-dc48b20fa7f8c483a6746dfa486cdacd+9ba6c6c87bc8f7ffda73b281a744c72d:passed:20150225-202605:0.340683246
T_0469avi_keyframes:34d1b5c21d8f3ea83a984da0df4cc5f1:passed:20150225-223922:0.097537735
T_0470avi_idx1_video_not_00db:35d28e969e74388f26ed8450b1a6651d-41eabc3b5c1f1e84efdddc028115231a-bcf4ed62d2f4c3f269b5c9643ea5e688-6dcfa8df501366c3f538cd1846c1c659-51b8fcbad968bef6b3fd094ad6d26851-73c0876b482a2d623044884b0108c2b4:passed:20150227-215810:0.514149858
T_0471mp3_bit_id3_tag_at_start_of_file:370bd0d6dbcfee97b157dcc27d7bf91a-8d9012c19d42c4dd975998c909b4e1ee:passed:20150303-181432:0.536899512
T_0472flv_headers_signal_no_tracks:d6e649ba8cebb13c47976d25490821af-d23c8a2a51424d811241a0be46f16215:passed:20150309-182340:0.28866888
T_0473quicktime_cinepak_pcm:026e7450f118398613ee042c8c0bc90a-b54f6f87ff9a78862558262892872f5e:passed:20150309-204710:0.179467497
T_0474quicktime_rpza:8f29de9543c615ec5059a83782f6ceb3-d6981911743905df0da3288f87990a15:passed:20150311-192934:0.130187877
T_0475quicktime_ima4_audio:f195ff6ca3f8084c89485f36fa3dfa17-74bd4d98f819ca208ae34c0f1a74bee4-cac96580925db18574a3b4c63baec863:passed:20150313-221230:0.376533899
T_0476hevc_append_and_set_default_duration:0dd5a978c2a6d84a176dc332de7b0889:passed:20150323-142700:0.352800407
T_0477ui_locale_sv_SE:23026ac2ed9767541e89f2261bcf8b60-938dc06fdd5c54793ae6c09b8a0268b1:passed:20150324-123356:0.075002422
T_0478ui_locale_sr_RS_latin:e82297022868c560a80c41513033ef39-2cdbfc8453e871653f2243f91e7a8fcb:passed:20150829-204735:0.08139514
T_0479dts_7_1_channels:0f241d632cd7db146340f6396c800fa9-1a263eb15a0fb2994d8b3b984cf45c99:passed:20150325-221521:0.237314797
T_0480dts_express:0cdee0dd632b18347eee4454cf9a97b4-49694384abca3644d325b54b14db0ce4:passed:20150326-093608:0.233868238
T_0481dts_hd_high_resolution:c0c0835c1d3148a05c85af43dfa5442e-4a233e3bd26cab0b4ae15b77b07a81c9:passed:20150326-184450:0.131154223
T_0482hevc_no_aspect_ratio_in_sps:a061f1f1b77ddc8306bd13c6ee34754a-d0a7b8d56898412dd90e7547f5636172-9e6ca67d935226abf0cf9ad586756ed7:passed:20150327-125855:0.216521366
T_0483select_tracks_by_language:143b0a8fadaba2d3d4916e727cc0eb63+632d9105b61d35c4e05b5d29a234ad91+632d9105b61d35c4e05b5d29a234ad91+632d9105b61d35c4e05b5d29a234ad91+4b890589772ba709091c17f9f7cd3b8d:passed:20150328-191349:0.311796057
T_0484dts_without_core_xll_substream:3562fe38cabc2be23c79d4703aa4993c:passed:20150328-221149:0.05772779
T_0485dtshd_file_format:f5f9a95f20eada4254d7d60f1391f68a:passed:20150329-085728:0.423813396
T_0486m2ts_eac3_with_extension_in_own_packet:185d22b5e40f54dedf25c4042e93519e:passed:20150329-193642:0.163439693
T_0487matroska_version_and_read_version_with_opus:4+2-4+2-4+2-4+1-4+2-4+1-4+1-4+1:passed:20150329-213811:1.395011808
T_0488hevc_conformance_window_with_cropping:7fe0c2c02ecc2a7800e0ec5668a6e349:passed:20150329-220212:0.085587355
T_0489dts_es:90572a1083df3406abb0a8ab498eb531-660e417004a4197776e9f99b50734238-3a7266b90652a1ba15ac0e29f65895e0:passed:20150403-115948:0.216098263
T_0490sequence_numbers_no_0_in_first_gop:dd4778f549c9a6b1e3c5191859ad78f2:passed:20150411-142423:0.234618093
T_0491auto_additional_files_only_with_vts_prefix:ee2f07f2683b0919126a058b0e0073d6:passed:20150413-202924:0.202768395
T_0492truehd_ac3_setting_track_properties:e5879057b6d1036c2c554436d3a9127b-9ab84cd2af47c044f1861452546915e7-4a984c2ddd73ba74b037c93b213450e7-6a97beb4a9fc8e51daa8a6135350422a-8658b7d4a59bf9899f376998e3711d85-f3b428a4fb38a2960ab9e92cb302f454:passed:20150413-211600:6.034964511
T_0493truehd_ac3_setting_track_properties_mpeg_ts:6c17e7c98f1706cce10f4a599186ad97-7f206edd209da9da5b50a2c4e18d3f29-8342a49a6e568595f592004d1360a6c6-b38f10edd43f6fb96604633502a21997-245fa1bb78f70fbba83cd096f3d219f3-09406606e94daebb677f834351c16f8a:passed:20150413-211707:1.206164375
T_0494dont_abort_with_aac_error_proection_specific_config:96261add4793cea59728dcec98ac956f:passed:20150416-092327:0.102255662
T_0495default_durataion_and_sync:d7ba1098c3d6320c57b3a0fa4b4f8bec-12f712644612a3f7f873505a4c763dd9-52a4a190348fabaeb43f97c4c21edb9f:passed:20150417-213623:0.376724948
T_0496segment_size_0:19ec68dca40b5f916a083963e549ed13-530dab6feb9ae4186e0e155cc0164e99:passed:20150530-180226:0.080589744
T_0497crash_in_base64_decoder:2411d4e9b51cbe36572e466289ec1b3c:passed:20150601-192215:0.047895922
T_0498mp2_misidentification:d723c44fe76de83bfa14fb2373b9e2a6-56c0b04c5fedc63f513f982d1a67d63c:passed:20150610-111131:0.179337846
T_0499propedit_tags_and_track_properties:4bff5fb4fcdd947eddb22d9575dfe4fe:passed:20150621-111029:0.341217189
T_0500mp4_eac3_fourcc_ec_3:c9f6e3c82e4f8a9552cbf12edcc62f06:passed:20150621-224248:0.421543503
T_0501mpeg_ts_pat_and_pmt_crc_errors:84e6047c7854e1859ff0f6633e1f108a:passed:20150704-110859:0.08983115
T_0502ui_locale_sr_RS:650e05c9c091234882980f4c1da05dc4-632a5e29cec2d5481179e7709cc549ce:passed:20150829-213708:0.070598527
T_0503pcm_in_mkv_varying_samples_per_packet:a0e6971697522a51aa5e761247efa818:passed:20151004-215848:0.798819776
T_0504dts_96_24_identification:714be08304c623a79718bd4b32e5dc60-fbb375fbf27471d840d5697e90e67488-af15fa6318a9384ccfee94e1351ef81b:passed:20151006-223804:0.188046967
T_0505cisco_talos_can_0036:903e7497c565dc04615de7b48d16661b-edcfccea7c0eb100f485f0a560258074:passed:20151020-161153:0.111384967
T_0506cisco_talos_can_0037:8b218f9433f77c360e9c408f36cda7b0-17a48314cfad29b9dbbc534393ae49b1-6a4dba1ed60e04745383661f06afcde3-a487475406501027b1105fd7190035c3-05993ca33ab9d38fac0df08502d43e29-e496554659492d2209a6f0cc4ae27970-ca90d53b72aba627a53324604b8a080e-d0ca572207a8443c278faae39402baf6:passed:20151020-161234:0.319298931
T_0507rerender_track_headers:338c7d7d79557c6a4eee2c8debc145dc-c778bf598700dd57943ccea46d345409:passed:20151022-104930:0.948212984
T_0508splitting_by_parts_with_segment_linking:existence0-true-true-true-existence1-true-true-true-existence2-true-true-true-equality_previous-true-true-equality_next-true-true:passed:20151103-204257:0.158958026
T_0509rerender_track_headers_chapters_attachments:7fe9e06aa467c43d37016fcff3db70ee:passed:20151115-230226:0.145857589
T_0510propedit_add_attachments_without_meta_seek_present:770103c238a0f502c9ec55f0599d8544:passed:20151121-101043:0.132807112
T_0511propedit_ensure_seek_head_exists_at_front:20f53afd94e39f5bbf3f1091eefbe31d:passed:20151129-194025:0.141979056
T_0512json_identification:ca389d7ad7ae1cefc1c333dc40e25e12+ok-d6bc41ba31b316b0b8b58200ae3a835a+ok-0463a68f10a11d87481992e2af6ce36d+ok-02e3092da95838f1b748dc71e452b082+ok-9c68bd3000e7a9da685416f73a721c9d+ok-edb81dcc53a754e2eb29a9986e7be8a2+ok-fc9de5416265a380fa3769de401246e4+ok-0b06a922ad49d0da282c9d6ac9154f26+ok-5c7e45a89e8214a6b4a3d9bbc7ac8252+ok-f28b00b14769d78e8cf4a54f17634b12+ok-8882963e9d459221b48c0cc246c880ee+ok-95a078142585dd2f790f2e33d2f3ae03+ok-2f85f494d6590a3c4a9e6f44d41f9ae8+ok-b396e0a31cc986cedccbdfc3e81efc25+ok-63b90823a5846240cb838d2c4c85d9d6+ok-100d3563880ec3050601c14ce8b38ac7+ok-d6254802a921e2d07a205ac6a0e3a719+ok:passed:20151207-223859:1.615897128
T_0513vp9_10bit_key_frame_detection:b25a4d045477a4cf6eabee3a84e5495f:passed:20151208-224613:0.33598542
T_0514remove_track_statistics_tags_during_remux:36504bb29dcc406dfe1cd3f02e05866b-d7570f1c429b4d4ea5ab852ea3e1b724-b86f1f92a5e36a16d3fa7fb16a976f87:passed:20151215-134129:0.74882362
T_0515aac_sampling_frequency_8000_is_not_sbr:920393357ada1ab31c8bf04073b6f85e:passed:20151219-130357:0.115718012
T_0516hevc_rap_sample_grouping:d8660476457e548940d17aee81b229db:passed:20151228-124607:0.163419662
T_0517h264_forbidden_byte_sequence_in_slice_nalu:d5e739f5edd666b7b7222794f01c3a13:passed:20151228-134333:0.350931297
T_0518mlp:7ec5eda6d23d3fcc50294ff03200fd88-4153aac6c9f07024cefb31d1ddc53179:passed:20151229-134422:0.497653101
T_0519truehd:ec9a0af691b8e7708cd1ba761b8f3f1d-ec9a0af691b8e7708cd1ba761b8f3f1d:passed:20151229-135950:4.275223619
T_0520truehd_mlp_atmos_detection:933082e71876ab5c89ce44aff9638f0e+true-d034d80ecde122fcfb1026b43a9b7032+true-af66c888721d3db496ddbeef57f7b2b6+true-7651394bf8e7025e83da2372eac987c3+true-0658d75a3ec6df57bf5e831c190eb633+true-100d3563880ec3050601c14ce8b38ac7+true:passed:20151229-160649:0.347572567
T_0521mp4_edit_list_constant_offset_with_segment_duration_not_0:1916944a222955e5bb151a1043bb4267:passed:20151228-185646:1.71116036
T_0522mpeg_1_2_es_no_start_code_at_beginning:cf63c8454526e94c6947a0b72e7963cf:passed:20151230-182435:0.082180374
T_0523mpeg_ts_pes_size_0:8f25545b077d6455dd47e58707ff46b6-35a8e3a06d95bb550f6e487ed5983955:passed:20151230-221825:0.766008582
T_0524mpeg2_misdetected_as_truehd:dacc8284272cc17cb3915b479b4f771a:passed:20160102-222743:0.076757903
T_0525truehd_doesnt_start_with_sync_frame:90300695ef1b9a99d4820f1e8432fc61:passed:20160104-205804:0.105462452
T_0526propedit_bibliographic_and_terminology_iso_639_2:36504bb29dcc406dfe1cd3f02e05866b-42d37657412ea65f82acf4659a80eac9-36504bb29dcc406dfe1cd3f02e05866b-42d37657412ea65f82acf4659a80eac9:passed:20160108-105234:0.789951533
T_0527quicktime_v1_sound_stsd_zero_values:a71c2b575b9d7a95f8637b280e33baf2:passed:20160117-112706:0.043313176
T_0528handbrake_chapter_uids:1ca95755931efc9a4008f14ab56f5447:passed:20160119-173353:0.259046225
T_0529aac_program_config_element_with_empty_comment_at_end:3e77b249978560f9e7412f94f073b1c1:passed:20160124-120513:0.057155917
T_0530avi_negative_video_height:1214ccb691b3c9f832ec3f1845a9a785:passed:20160210-170826:0.04756217
T_0531simple_chapter_extraction:6b6dccb8f5a4ab488da2f174e0d9450c-6b6dccb8f5a4ab488da2f174e0d9450c-e790f2e02daab6faabf712ccf9877ac2-b832af714e46ad7514e669297320b032-b832af714e46ad7514e669297320b032-59afc62025a19921cfa64280acbbb61c:passed:20160225-223308:0.301097904
T_0532chapter_generation_when_appending:6a6538ea66084fc28e374e705eeb4ad2-31ceeb92592a1671f0b7ebcbfeeb9908-6e3ae6deb11a4d683fca06933f5ddaf5+721627e0e7852c994e34921c4e546d18+23864834dd2fadcea3be3279abf3c860+aee8c527060adb7d5c5dae7fca10de32+d16890fedb7650bd65316e9009e056d6+59e38a3d60481112d13540d12a874f08+ed2d736a98638d3e2027519bd5ec2c32+ok-315cfb4dbbdeadc3398742697a1bf29d:passed:20160301-194344:2.170367494
T_0533chapter_generation_interval:fafdbac6137f8a780892d4498e393642-b882e3ba09deea7299d8a20da1bb7e8e-50248e827d473758f442db2d847208d3+29d85450ce723615f0dfce5bf4795eb9+4204821c5163376836ccf3c02e57c8a0+12060e4bafa9fe143eabbb10650abcc5+015ee5671d6d0aba2227ea248299ff8b+568e6e1bcc1b090acb031153268c30bc+ed2d736a98638d3e2027519bd5ec2c32+ok-580dece7d4a63fdbb5b199d126abf8f0:passed:20160301-194459:2.225262916
T_0534chapter_generation_when_appending_audio_only:98d278ce919ac1aea69a4916b086c424-c9acd0af9b37099fb8a4bd49c3153c73-5f9f31bbddda0709e0d126e84a0fcdfc+42164597103be6103187a4f71c8598a3+99106012541972ab6388fa72f170bccd+ffc764a04e361fb1dee5fcb13191afbb+0b7d69a0095adc2a4dbe211f6eaae847+d00c9bfe9f96d756c5fc95cd07de3982+870056c2d823624e9e9d418387cfbd35+ok-37ccef5eb42c5ef7b63e9d0d4b6ae52c:passed:20160302-130929:0.96098178
T_0535chapter_generation_interval_audio_only:2e1a880d27f660bb47e021684f28d0f7-bb67afa3f3941c6de3f54c76ec0db583-5f9f31bbddda0709e0d126e84a0fcdfc+05eec66a14a08d5fd83152e2351b6f3f+a96af52f21b2d5e3dfddb10041dccfd5+7630dac399c561ce4765244bae257041+935170ccd246f854381b22c6e698202f+968444b3bd7ec1cd47628ea1051d360e+bbfdc1cfa0a772d6b2e1038740f9d780+ok-d402afb2ddad507a0738f3e982a85cf7:passed:20160302-131002:0.988381202
T_0536extract_big_endian_pcm:8969a34f345d2be56d62d809d5b5f90a:passed:20160307-190156:0.048644287
T_0537srt_bom_precedence_over_sub_charset:978c1dc3a889fd9f34e9e104953fb8d9-978c1dc3a889fd9f34e9e104953fb8d9-978c1dc3a889fd9f34e9e104953fb8d9-6df4c5df5e6dd194191518ad071a4cca:passed:20160309-180444:0.238747077
T_0538teletext_many_packets_same_content:756209476aa3d7121f85f3d55dd7456c:passed:20160316-143840:0.463912613
T_0539ui_locale_ko_KR:a78ed3e34c08f449e4e283d206a3c0ef-f1b52c4c680dd605ddfcb99cc02c81a2:passed:20160321-173717:0.072065814
T_0540teletext_non_subtitle_pages:ca843a3d981192e182c9711622043c67:passed:20160324-204239:0.161620813
T_0541dts_hd_ma_reduce_to_core_channels:49f169ea6fb9bb0925e59713e45905d6-6:passed:20160327-145153:0.125821422
T_0542h264_interlaced_bottom_field_first:4c11b5724550a525bc40e99d80864d7a:passed:20160329-220636:0.222212579
T_0543webvtt:fdd5ef9a82a11e2fdefcaa70e10a2f56-8b153391c30b8ed525f438eee5af604b-31049bccf279cbfb0794efb23a07e4e8-8f725ad2c04e292fdc71ed879224e46a-fb2b5f77f3b1758c84165d6e2a25435b-038535a47a9d734e01c082081888731f-fe0cb770edcafd872e2b001d7989815d-05e5bd3754d649a53c08e933d802fe6d:passed:20160411-210911:0.442739488
T_0544X_webvtt:f2c1bcde331379ca76c5e1367d223b71-9588ba9a876ebb8dae61f6ee88f005cb-632288a3409bd1423bf1046db081fcb2-1156c9c5852899af1d5f4b4c592dc3fe-a2aadd343d93e3f3f400b9a4b32cbef2-09b2b283791ecb7401631d640d67d67e-b543cedb3953d783ae9b40ad5d9bc09a-7fabd75caf5b576686cebe878c4f94b1:passed:20160411-215720:0.841816821
T_0545avi_incomplete_audio_chunk_at_end:f6c3a8fd5dd85cd6c8de451b8ac92a55:passed:20160413-193628:0.609780211
T_0546teletext_multiple_pages_in_single_track:e550c06c7971a739fda583dcd1299351-26f810400f7c23a955b4daf2abb98796-269818cb6d9baa5b1a695df26891362c:passed:20160423-142735:0.392052229
T_0547mpeg_ts_ac3_stream_type_0x87:7f3aaedb0aa2c67878edd09c16cfa422-3:passed:20160506-140318:0.179239766
T_0548generate_chapters_interval:c8485fb90a9fc8d38f9a1a2e576fa60d-70-e832d0304e9da79db231edcac7c12117-35-477597009544adf7911d5268affd0622-24-fa5e6bf165add2daea47dc0c7fd177ff-18-23386dcad29ddd22536340db6baad400-14-7d736f59c7dfef82ad457d70fc3de4af-12-bddf0e3549f25bfafa783a1e67da90ee-10-64186a8e278d1e22061b1961948d0d6f-9-c22b644c44c2ad28ef5acca230222a8b-8-e18c7a8933a8a7669345a090fb058529-7-c9081362bae58b205f7ef9c7b9bd71b1-4-d402afb2ddad507a0738f3e982a85cf7-3-5b8ccc7b61f289fd4cc434007ff463be-2-1ea3846e4bcbf68e80baf20d7e2f449e-2-4354edcdc7501f9cf12a076767bfc6ea-2-37ccef5eb42c5ef7b63e9d0d4b6ae52c-1:passed:20160515-114928:3.126305015
T_0549truehd_96khz_sample_rate:138387d768deb4137183a3d006ce9a32:passed:20160627-185805:0.393993721
T_0550wavpack4_stream_version_0x410:0907fa4ef75256ea86ac0e8669360067:passed:20160703-121539:0.07124975
T_0551deprecated_cctld_codes:b9d9b27e6695ad2a9e54852e5b57f30e-5ffeefc0f652c5749e5e8f41a039aec9-5a48a231c2bb2e170ab4497f47d0be72:passed:20160703-145341:0.160111274
T_0552chapter_generation_appending_file_name_variables:e0014b2852ca66dac88f52a039a6a297:passed:20160710-203404:0.265192622
T_0553ogg_kate:cd8396419777cbace049fbc7da809b92-3517ad25f4cf12f9e8c895c9c6dbe4e5-a1d6f87bc50ae14322c6018dbb019034-a3a6b5baf4f013a912a4baec85c1c489-3aa94b10ef5d5731d5892868e2c50aee-c71a6aec86fe232c6a8e24cbc6047008-1b0f11285e22121f5927621bb4855eeb-c65c37768e483ed9db79f3dcd4775b62-b037249d1972a35c2e36423d5f0c444d-a9a2540c3576375689a3f8605ea6c620-06badae10ce2895a6a2d90aa4606308a-a76ca73d5568fbf5a46d84dcc01c6192-d2ed477611ffa805438fc2383f385ad3-945109bfcaaea31d1ac511e8998374f1-c86b85945d07316a1ec0413757d980a1-dc14556eb3c232e628c6e776afc4647e:passed:20160729-134725:0.858050614
T_0554ogg_vp8:01d9bc6472c29b9c82726d0b1a7fba91-22b523a87fd342174f3668985115719c:passed:20160729-190454:0.110220619
T_0555appending_with_square_brackets:eaf587899501bdc8d54b94a7d549e435-eaf587899501bdc8d54b94a7d549e435-eaf587899501bdc8d54b94a7d549e435-eaf587899501bdc8d54b94a7d549e435-eaf587899501bdc8d54b94a7d549e435-eaf587899501bdc8d54b94a7d549e435:passed:20160730-115423:1.371165547
T_0556prores:b77bcebee6da4c34860da7c1e4e92a48-34eeadd2ac3067b0149fa07d41e60258-76042cf0f5c2f789fe806c683eafc72c-9e47da3262a207efd735271b5873daf8-86be5987b2f19b423f044d845ec23183-86be5987b2f19b423f044d845ec23183:passed:20160806-201730:1.521891825
T_0557dts_hd_ma_xll_extension:96000-192000-dd9f026183f451bf46e639874d9b6587-dd9f026183f451bf46e639874d9b6587:passed:20160810-203155:0.338017242
T_0558segfaults_issue_1780_part_1:error-error-error-error-error:passed:20160906-210126:0.261432859
T_0559segfaults_issue_1780_part_2:error-error-error-error-error-error-error-error-error-error-error-error-error-error-error-error-error-error-error-error-error-error-error-error-error-error-error-error:passed:20160906-225430:1.623738345
T_0560segfaults_issue_1780_part_3:e4b0067dafd32d2ddf2cbcef55153b8a-e4b0067dafd32d2ddf2cbcef55153b8a-e4b0067dafd32d2ddf2cbcef55153b8a-e4b0067dafd32d2ddf2cbcef55153b8a-e4b0067dafd32d2ddf2cbcef55153b8a-e4b0067dafd32d2ddf2cbcef55153b8a-e4b0067dafd32d2ddf2cbcef55153b8a-1f286e20ff60c04dd7ed72ef5ed10cf8-8e564b337c79e45d22c7499678de2049-e4b0067dafd32d2ddf2cbcef55153b8a-b0ce6c1e7f9d471c80287ad0eed903b5-f68a4ac3e509b4372bb8e2b9f0ad583a-8e564b337c79e45d22c7499678de2049-e4b0067dafd32d2ddf2cbcef55153b8a-73eebcf707f655f6352475beba1bedf2-2867484885162b30ae24e6243817ff70-2867484885162b30ae24e6243817ff70-2867484885162b30ae24e6243817ff70-2867484885162b30ae24e6243817ff70-2867484885162b30ae24e6243817ff70-warning:passed:20160906-225653:1.198095808
T_0561segfaults_issue_1780_part_4:error:passed:20160906-225808:0.060458777
T_0562segfaults_issue_1780_part_5:error-ed315b28d206c6a09d9615eaaeca5907-warning:passed:20160906-225922:0.636905522
T_0563segfaults_issue_1780_part_6:error-error:passed:20160906-230017:0.076950413
T_0564segfaults_issue_1780_part_7:error-error:passed:20160907-203352:0.087889548
T_0565hevc_detection_failed_due_to_width_height:9155f97b9a17b74e1c928ed527f66009-81e8573a10af4bfd31e4c69e04db6e2b:passed:20160911-140155:0.305931601
T_0566opus_with_comment_header:4e44fcbd1281821119e244f4ab3e5267:passed:20160930-100110:0.065112284
T_0567propedit_muxing_writing_application:1a7c1c4c41a6fac44de162bc34daed64-chunky bacon//597695b863e1f15a0bd033c56dc5ff2d:passed:20161006-212023:0.157511798
T_0568dts_wav_14_in_16_detection_failures:c0d864f3a2863c903bf04f976a89dc92-0542de103ed7215d7a4933d0c1ec354c:passed:20161009-202725:0.3463309
T_0569wav_dts_ac3_track_properties:6f8fedab9873a950095b50bfae5c97ff-0647a19df1ed178023cabfbcd35d27ee-5f4dfbe514746e68f21a6b84c8f08ab3-b74d35c0370d76351ee3a875940bf88f:passed:20161009-213308:0.318879048
T_0570h264_misdetected_as_mpeg_ts:cc782643d360fafbe51fc556fb2f39fc-ad9d5b2a3abb93c5245f708c408472b3:passed:20161010-181816:0.140230716
T_0571bluray_pcm_odd_number_of_channels:dde5e10765c7d84e52284f4278fbecf3:passed:20161012-204232:0.103937851
T_0572hdmv_textst:56dd05f6b0f1dd25fe14d76b1ba9d821-1e282a27ccb0d4c74f19dac6da6fdf2d-0d52b152b0c11433a41c6d0d42c1e662+2107477df34223618c5bf882fea56180:passed:20161128-164101:0.292849086
T_0573teletext_subs_data_unit_id_0x02_and_multiple_magazines:4326f19ca0f7f6c3270b9fbaed157020:passed:20161208-202941:0.114250152
T_0574tta_with_apev2_tags:1adb51d484958372f97b683c812a67e8-a5b0347b10cf1151b1b65c5f9f76f655:passed:20161223-210853:0.075940157
T_0575mpeg_ts_subtitle_timestamps_way_off_from_video_timestamps:06df0185f74e302b9f84c4ddba524f3b:passed:20170106-200606:0.445406444
T_0576codec_delay_in_identification:fdb011d755bbf9ea5c0ff8861fdc2c00-123000456:passed:20170107-123513:0.238918596
T_0577keep_codec_delay_during_remux:fdb011d755bbf9ea5c0ff8861fdc2c00-123000456+123000456-08c93f858f9ab05cfe8e4cc0cd57bdd8-123000456+6500000:passed:20170107-125917:0.9793262
T_0578iso639_2_codes_qaa_qad:qaa+qad+qaa+qad-und+und+qaa+qad:passed:20170108-150736:0.995438864
T_0579vobsub_in_matroska_without_codecprivate:36bed2d42b16458ce8e362443d84dbc2-0004d35e73fa41e18d871f915e128999:passed:20170122-113531:0.172748247
T_0580mp4_dash_moof_after_moov_and_mdat:69bd1b1793cb236dc0162e3a57b386fc:passed:20170127-203233:0.132041069
T_0581mp4_multiple_moov_atoms:6ee94425ec880c7874100e477c882343:passed:20170129-104017:0.326233373
T_0582reading_mp4_with_and_without_track_order:bc285f7facc19ecc1e64eaa750c82792-bc285f7facc19ecc1e64eaa750c82792:passed:20170211-173020:0.259521469
T_0583dvbsub_four_bytes_codecprivate:4+4+4-c2fbba86a326575b3dc48273b8515012:passed:20170217-183748:0.162855779
T_0584ac_3_misdetected_as_mp3:true-e41b2727bd677a7ee40a2e8e6f4fc34d:passed:20170218-123152:1.11707901
T_0585h264_wrong_mapping_of_timestamps_to_frames:db72995455b3094d0ff6fb636a2526a4:passed:20170318-172210:0.342827809
T_0586h265_invalid_default_display_window_in_sps_vui:7016fab72434d9bac4838cc3c5c55e0a:passed:20170319-185708:0.071509161
T_0587X_ssa_ass_shorter_non_standard_event_format:8a247e76b55536c66e8f0c6b03b14de7:passed:20170320-133053:0.035154018
T_0588h265_must_copy_bitstream_restriction_info_in_vui_parameters:3417d50fec6fa66182d5201c46ec7be2:passed:20170330-194958:0.157143306
T_0589h264_forcing_default_duration_in_fields_with_source_matroska:eec98d960fcc7109b80d2e2b63e18df9-40000000+40000000+true-f1223a8b93cec4d9a4074073e2140122-20000000+20000000+true-9c4cdebdc63cab89b8d93e3956bb56a1-30000000+30000000+true-809dc706f234a9e254112f8c2dbacda3-60000000+60000000+true-0e5626bb3d7e26b53e078d7777c86bff-20000000+20000000+true:passed:20170331-165013:0.8859877
T_0590invalid_track_language_elements:6c2d89bcd1a143026009bc1b1a30cda7-d1d59cf742f77929dfae0e6781055e33-504377ff162f30bc8e8dfa117def63ca:passed:20170404-191832:0.188005288
T_0591hevc_wrong_number_of_parameter_sets:fc61f28cd154cea8514f01955202547b:passed:20170412-165246:0.211715957
T_0592mpeg_ts_aac_wrong_track_parameters_detected:1ff4fd80e5142254407dc0d363f58218:passed:20170412-225238:0.094043164
T_0593flac_with_picture_metadata:a403fa8e46028e2f48836732515e57c9-e89126f05226c3dcd2ec33aec2c18006-c67e939a12430191d709644b8d045960-d0d7c1280339f113949088c459fccd1d-a082abba609f947bdadcc2ea4e9f978b:passed:20170415-182414:0.759487754
T_0594hevc_split_parts_discarding_start_endless_loop:7c6a1ba3164466c04ce1cf20174dc5da:passed:20170416-073513:0.130443398
T_0595h264_bogus_timing_info:15fd83cd123380a119b9c6fe9e31f2cd:passed:20170417-200233:0.09848111
T_0596mpeg_ts_aac_loas_latm_misdetected_as_adts:9f7af9903c54392846ec308346edd4cb:passed:20170424-170304:0.146847485
T_0597mpeg_ts_starting_with_avc_start_code:bcc02dbd864ffd8c8485741d76ba27db:passed:20170510-145746:0.07613792
T_0598aac_track_not_listed_in_pmt:570a4777885c5de3fdb0cd93a9c62857-AAC:passed:20170511-221910:0.160317684
T_0599mp4_nclx_color_type_in_colr_atom:8918ef6c58ff40bf35d92f46dd7b59da:passed:20170514-203828:0.068110641
T_0600mpeg_ts_multiple_programs:6f5a3171b07b9cd7dd9221ffbb89e39d-170df49439b75f4888a50497320e7b91-4fb6e7e8a0543672b4162c4b7add7bc4-b0e15c07da6080b43a60e4b635b02e99:passed:20170522-193901:1.013242128
T_0601mp4_mpeg2_via_esds:b8c8c68e014cae0f8565e9d22fa7e7fa:passed:20170618-150319:0.319922344
T_0602vob_with_garbage_at_start:8af88c4ad2e460c323e5e58207b55cf8:passed:20170619-185256:0.135309327
T_0603mpeg_ps_ac3_not_enough_data_in_first_packet:1+189+128+AC_3-2+189+129+AC_3-3+189+130+AC_3-4+189+131+AC_3-5+189+132+AC_3-6+189+133+AC_3-7+189+134+AC_3:passed:20170624-092201:0.061882344
T_0604append_only_one_video_track_with_codec_private:9156b72b010f93346ff9ac234ae963ba:passed:20170624-105837:0.277065271
T_0605h264_changing_sps_pps_wrong_frame_order_and_timestamps:715a89862914497e05b2f4d162b82e7b:passed:20170704-211727:0.148711146
T_0606aac_960_samples_per_frame:5644a522be148f99e2d0408407d0df54-c10f9968072a6ec8698f649073a5b4cd:passed:20170720-215449:0.202094441
T_0607wave64:66d66bcb298748ccd3ab4f4893d2910a-e9a564dd3176881996760e42b5c82a6f:passed:20170721-221321:0.085288442
T_0608ui_locale_ro_RO:3a6386df8e8d7aefb9258f070615b27d-9ced68a8f3c97c640d64d2da93a0e9ce:passed:20170722-160005:0.06105701
T_0609propedit_video_color_attributes:0d90cb376459eee539a089d783439c78+7c7b6a06c92bba5a7226e5a2ddb3e209+67c993cd909f6580254b7759284c45d7+ab083926c492b19eb0979c327c1ef698-50c99ed5d6a0d8075ed27b78cd454da0+11996175165c555c4d33cccd93354f19+d8b7bd4dfd67a348d181b63e294350cf+72c296931ec59c647c7bbdca3f2da6c2:passed:20170803-210425:1.36992611
T_0610video_projection:135279f186e863abf91126aac53fddc5-135279f186e863abf91126aac53fddc5-be711c41f9a0b80a1feebde13f946967:passed:20170813-094000:0.488125405
T_0611info_null_pointer_dereference_for_ebmlbinary:68d2ebe0a701fffbcc5b5f245f1abbef:passed:20170813-104016:0.029098161
T_0612dts_provided_timestamp_used_too_early:9adfc81a85af5ce049f1125f56475f86:passed:20170813-175153:0.063166492
T_0613vorbis_in_mp4:34839c22a72851b640b4c0ecfa4f371a:passed:20170910-175618:0.128195916
T_0614white_color_coordinates_from_mkv:6d0d35e6a564cd30dff8a3447f15bf63-6d0d35e6a564cd30dff8a3447f15bf63:passed:20170916-112249:0.278013337
T_0615opus_discard_padding_in_the_middle:5694e1fe457974a8b5770193f36c6461:passed:20170924-230527:0.073963375
T_0616more_than_128_tracks:6dc2d09865b6905ac094cda40adc3208-6dc2d09865b6905ac094cda40adc3208:passed:20170925-201313:1.505582579
T_0617aac_adts_parse_program_config_element_for_channels:86ba9968da7c7710463123dd6f061f4b:passed:20171001-201657:0.126172833
T_0618e_ac_3_with_core_and_extensions_in_different_blocks:f600a027694b856069631ec3c98b4bf1:passed:20171001-221905:0.151469142
T_0619ac_3_misdetected_as_mpeg_ps_and_encrypted:795e9be4c1601e9853378a1fee1bfd01:passed:20171007-172620:0.057917391
T_0620ac3_incomplete_frame_with_timestamp_from_matroska:778598e9e4ca669936425531d1a8d9b8:passed:20171014-153427:1.19512694
T_0621propedit_remove_date:1a7c1c4c41a6fac44de162bc34daed64-ok:passed:20171101-180348:0.178754212
T_0622aac_adts_8_channels_no_pce:bda79d22f19bb67c72fd03f0f1e8944a-ok:passed:20171117-190136:0.173552412
T_0623text_files_utf16le_different_line_endings:aa23dcad5aebc91db65c80fb8c0e7f4f:passed:20171201-143509:0.072485567
T_0624h264_fix_bitstream_timing_info_exactly:a8bc99f46a464ec3fd96b7eef4997c81:passed:20171218-202838:0.106331677
T_0625h264_fix_bitstream_timing_info_in_framed_packetizer:83857384b0d1a8a2278cda47c1116f92:passed:20171218-203251:0.060946279
T_0626X_avc_two_consecutive_idr_with_same_idr_pic_id:6d023939360f96f54599a4d481cfbde5:passed:20171219-220538:0.05087073
T_0627h264_sps_pps_between_slices_of_same_frame:972072e19507d05d099577254b8cddd3:passed:20171221-153453:0.039563123
T_0628srt_no_decimal_places:4cdcb36795a0fb3b38611cac7980d570:passed:20180102-191637:0.070696246
T_0629mpeg_ts_broken_pes_packets:1264552337a50e38889c0b73ae03e10b:passed:20180113-212211:0.190835185
T_0630propedit_add_statistics_tags_with_compression:54d3f1b2de817a97d82fc65eb038c4b3-18+70+590:passed:20180118-205706:0.153635835
T_0631ogg_opus_packet_without_data:823284f264d5f383a731608bb4b88a0f:passed:20180210-164242:0.196680388
T_0632flv_aac_codec_initialization_more_than_5_bytes:59dc047e68f42c5db41bd843c686e963:passed:20180222-152609:0.333656616
T_0633payload_signalled_but_no_payload_bytes:b66d1fce013977c17b84d02a5115977d:passed:20180304-220823:0.229460962
T_0634dialog_normalization_gain_removal:94c78ecf6a7976d1ce08954021e16e80-1dc37c2f994031c2b2475fa6946b84d7-1dc37c2f994031c2b2475fa6946b84d7-1dc37c2f994031c2b2475fa6946b84d7-dfa058b79d4ada476f07ef4e4cbb59c5-0fd7c35f65b091aaf54d1a90c02db599-0fd7c35f65b091aaf54d1a90c02db599-0fd7c35f65b091aaf54d1a90c02db599-9f816226ef69f563e25b98b886c88176-fcf115d80a829a3258fd48c5eaf4fd1e-fcf115d80a829a3258fd48c5eaf4fd1e-fcf115d80a829a3258fd48c5eaf4fd1e-64994e01ce9c2c0ea6dd3fae2dedc1dd-c6a975fb60a39ac1ceec144f3259ec39-c6a975fb60a39ac1ceec144f3259ec39-c6a975fb60a39ac1ceec144f3259ec39-eaa5d4a980c78becb61bffbc35d091d2-fc822a4c91992713e996b9837222bc91-728a7b6855465db0149f6a279f90600d-728a7b6855465db0149f6a279f90600d:passed:20180308-204112:3.321428335
T_0635propedit_update_doc_type_version:963e90b5d0db8a793d37cc204b8be69a-4+1-4+1:passed:20180310-135142:0.509975434
T_0636flac_with_id3_tags:393e87f184e6e66af242070ac77be5ab:passed:20180310-182917:0.369755248
T_0637mp4_8_channels_in_track_headers_but_7_in_codec_specific_config:true:passed:20180322-222201:0.036850157
T_0638av1_ivf_webm:9298943678e04d57288fa313b8ece366-9800cc3b0cd3f17d79928e18dd64540a-290cf6be507e9b73577d4efa2e54fa05-f4600ebdd8f50f75d71fb65f5e7c10b0-1f6f889ed695a5658e4e38efeefa2b8b-ca3d2c78494a0706edc944ddf0470de3:passed:20180401-164905:0.287810866
T_0639vobsub_missing_duration_in_matroska:e154e323e6251bc8f97f33dc020ae799:passed:20180401-193013:0.074003406
T_0640no_date:3ed365dd3d0ccbbea1ca946d6aa4d23e:passed:20180427-231324:0.036794747
T_0641keep_display_unit:8ac88492c011044e008174017a132414-3+16x9-8d197e6c0328c730860e647a9cc6f5d3-0+123x456:passed:20180609-123022:0.340072414
T_0642avc_es_clear_internal_buffers_after_reading_headers:54872fb2c8a7ce3daa02e3ecc69a9e79:passed:20180613-174520:0.075832336
T_0643mpeg_ts_bad_utf8_in_service_names:f967b2bf3fb4265ec723f14eb667bb9a:passed:20180615-172956:0.063654865
T_0644mp3_with_discard_padding:143beff7f14882dc2fadb39c908daa0c:passed:20180619-214051:0.314877924
T_0645ogg_opus_first_timestamp_negative:5b1f8cb245e4f7da9be04721a395667b-78ecb550d4dc5ad4b4a0764486343dc8:passed:20180620-185732:9.891040757
T_0646ogg_opus_gap_page_missing:5a896c3c8be6dc9696eca44a6f1b19fd:passed:20180621-154830:0.065952139
T_0647recode_textsubs_from_matroska:2ba4e1ac65b511c526755d739bd09c90-a6771fcfad13890f83e63d82282ade08:passed:20180621-194122:0.093925154
T_0648append_matroska_first_timestamp_not_zero:725f1d2ec1a5122b5806ab2ea1d26ff3:passed:20180724-210331:0.068294673
T_0649unsupported_file_types:ok-ok-ok-ok-ok:passed:20180806-201225:0.221070923
T_0650chapter_generation_no_names:97a88c8214eb4d35016741a510f5dd98-ok:passed:20180821-140249:0.147869851
T_0651sync_chapter_timestamps:488a9e29b8b3cd29dae82fab12b0cf35-73ed8d8331cc91d149f4fd03383958d2-1acadbb5ced47fa1ff4981f92d806fdc-1acadbb5ced47fa1ff4981f92d806fdc-634280edd4162c21ab3e05e44867ca80-90d541c10c74d030eab4c70c04633bc2-90d541c10c74d030eab4c70c04633bc2-50411fcb281fa134cbf771477dab45aa-df5a7ca4c43cf91760cc295288c16ae1-523d181a025c0c5ffadba2afd1172286-523d181a025c0c5ffadba2afd1172286-43895e8b11cf5b5c730f37041f6f40ee-d28ae543b8b462cfcfc9985aa3233330-d28ae543b8b462cfcfc9985aa3233330-6df6375284b13dbe35ed4534a4e66429-cec8084251222c75eba28e26df156ad5-4ecd56a52e8ca31ce80fa9de7376b111-4ecd56a52e8ca31ce80fa9de7376b111-2d5fa526a341b880c52698466a5f8382-220b41a5f78aff2343363ee633e752ae-220b41a5f78aff2343363ee633e752ae-b9d9b27e6695ad2a9e54852e5b57f30e-aa2dbde8371a61b3a7b9361d99a8b017-aa2dbde8371a61b3a7b9361d99a8b017-aa2dbde8371a61b3a7b9361d99a8b017-5e6a780a8b21ca7e9311e6d007d9a91a-5e6a780a8b21ca7e9311e6d007d9a91a-5e6a780a8b21ca7e9311e6d007d9a91a:passed:20180918-223701:9.926478092
T_0652quicktime_pcm_in24:062813ee1b9771f730974cfabb5f47ce-true:passed:20181001-103254:1.923693932
T_0653X_text_subtitles_without_duration:5162bddd5f57ee5fb7e8fa2da506d963:passed:20181005-185654:0.047151348
T_0654text_subtitles_without_duration:4315307be16606eff855c6a8ced02a66:passed:20181005-202509:0.052093947
T_0655mpeg_ts_teletext_subs_long_gap_until_end_of_display:8c06e298b1643e98369cdf51ccebcef0:passed:20181005-212927:2.169433869
T_0656mpeg_ts_bad_utf8_in_service_names2:92321b1451050a6fa6b3853c72783c9a:passed:20181006-122753:0.056613914
T_0657av1_from_mp4:2e39d8a5f52498a5b1f4f85deaaee65f:passed:20181007-220646:0.267172573
T_0658X_av1:20347e54bac4d1b0fe82d1f2f6c17c4d-d50b6ebae94466fe3acea0c7677797c1:passed:20181007-225807:0.078555903
T_0659av1_timing_info_in_bitstream:deebd4ade57be0d54533a9b5145ec690-ac9ffa17615df2bc9a97a6b065cd4434:passed:20181007-235434:0.080574964
T_0660propedit_replace_one_byte_with_ebmlvoid_all_surrounding_elements_coded_size_length_8:a16d7aa5d00d120d20c4c3c718e1b00b:passed:20181020-160502:0.129495293
T_0661av1_in_matroska_by_mkvmerge_28_0_0:9e6c376b8b262203eb1d82e9d0576ff1:passed:20181021-225056:0.059216599
T_0662cisco_talos_2018_0694:2bacc50e6e28fb2a92d2abf2583405f5:passed:20181025-215511:0.044275911
T_0663mp4_wrong_atom_size_in_track_headers:db40b1e334c627a3aed063c45e60c35f:passed:20181115-195646:0.519512271
T_0664generate_chapters_interval_first_video_timestamp_bigger_than_0:850221fa0f1f4ebc6832c97525047bd3-true:passed:20181116-094425:0.829160754
T_0665X_aac_program_config_element_in_audio_specific_config:16e784e5099e573e1f24286ec04dc591-c9d4c821b247fa99cb8c19549be13fea:passed:20181121-165428:0.083016359
T_0666propedit_update_cues_after_cluster_was_moved:1098cab0332aefe8275b885f0dba7069:passed:20181124-150141:0.255129293
T_0667ogg_chapters_use_name_template:8c4962aef5158a53afebb26764d9c310-0825b6e90b221e60bcd49e2ab94788cb:passed:20181125-222443:0.095775094
T_0668flush_on_close:1a7c1c4c41a6fac44de162bc34daed64-e811bbfaa7fabc16d14310db3092dbe3:passed:20190110-220105:0.218966299
T_0669ssa_ass_zero_duration:21ae8324332508a1a73130f9d70872c0-cb0f199ccc7a18831957db13d7527590:passed:20190124-143027:0.069359568
T_0670h265_interlaced:720x480+1920x1080+1920x1080+1920x1080+1920x1080+1920x1080+1920x1080+1920x1080+1920x1080+1920x1080+1920x1080:passed:20190126-134743:0.219498113
T_0671emojis:ecceb53aff1e95a9b8e7b0248b98b91f-true:passed:20190312-202232:0.082280625
T_0672codec_name:341406b6c7c637e1740177750aa688b6-true:passed:20190617-195042:0.084330347
T_0673srt_different_eol_styles:fc6835d82a21dfe2a17e8ef2a7ca0623:passed:20190810-160539:0.139874653
T_0674ui_locale_bg_BG:dd68e655c0478092911742dc17732ad9-d008e383652d650d13a900f3d7b3c151:passed:20191103-114402:0.058887726
T_0675mp4_cover:dfc71726c37249b56a6bc3335475c175-9ceea11ad9723d72f7a945981744be24-060170d57bac3c83175be67abc289b27+060170d57bac3c83175be67abc289b27+true-febe33c2f914a0027b9dd2a66f222782:passed:20191103-131313:0.63170349
T_0676cover_art_vorbis_opus:39e3c6302501397620087e6a4682edba-be91653203c4c6c67a12982a9d4c9a65-72e193b0682dad985317cd03d2be1ab9+72e193b0682dad985317cd03d2be1ab9+true-20a208eafdc5c2332bd4dd1ff536187c-7f8dec9cbff9829761a4d6779f674e05-72e193b0682dad985317cd03d2be1ab9+72e193b0682dad985317cd03d2be1ab9+true-39e3c6302501397620087e6a4682edba-9517f6480bbee97f38c7bf88243bdeb9-e55849ace1748ac515b16881e397101a+e55849ace1748ac515b16881e397101a+true-20a208eafdc5c2332bd4dd1ff536187c-6cb2f006c238e10b100e85e3ead9bfc0-e55849ace1748ac515b16881e397101a+e55849ace1748ac515b16881e397101a+true:passed:20191110-132634:0.330887751
T_0677vorbis_in_matroska_with_comments:204a66c387669dabc4757a510f1ff8d4-5b10cc55b5e9bbd10863c47a74161ba1-1ab9439d92046d1c9ff6e76828bc5bc3-6ba13b9f67170ae23a2e1b37aadee5af-61f5329422d77a29ebf7f795ebfa478b:passed:20191201-213124:3.090263954
T_0678rf64:70e3f90af0e59bb539261d3950d55244:passed:20191202-223330:0.15124445
T_0679wavpack_from_matroska:debd8432ce7dd4d9de111f8d43d0d159-debd8432ce7dd4d9de111f8d43d0d159:passed:20191204-223048:0.161558732
T_0680header_removal_compression_without_removed_data:9e5670cb7ed16dcb003f352883ef9606:passed:20191207-095300:0.062915741
T_0681real_audio_all_timestamps_zero:15989cd671cf1ae72ddfb24ce0364617:passed:20191207-125307:0.058554905
T_0682invalid_memory_access_in_frame_assembly:cdf3b9da8565cbeef6c75c9ace2bfab9:passed:20191207-154924:0.154007148
T_0683prores_in_matroska_with_icpf_atom:cdb830b01bd7167b204b30139c21bd44:passed:20191215-151830:0.037945224
T_0684deterministic:a2144f0a4d4830798c54a23cf6cf7019+16296316534582144190+6467223910221523705+15003652824273206442+17408887814429376554-a2144f0a4d4830798c54a23cf6cf7019+16296316534582144190+6467223910221523705+15003652824273206442+17408887814429376554-f5282b59ef01ea57fd93e8b64bb1147b+11796936434107936534+2062519427281921607+10692493273940629375+13482037488641761990-f5282b59ef01ea57fd93e8b64bb1147b+11796936434107936534+2062519427281921607+10692493273940629375+13482037488641761990:passed:20191228-125752:0.41099898
T_0685propedit_track_uid_changes:4711+815+4711+815+4711+815:passed:20191229-143919:0.195071511
T_0686container_wrong_num_channels:true:passed:20200101-235713:0.055471107
T_0687h264_additional_sps_pps_in_middle:6df530de0d0a805b68952aaa3941c5af:passed:20200105-163253:0.119229733
T_0688opus_single_page:481b3b63f7b0121e2ff913b9da233de3:passed:20200113-193521:0.037249369
T_0689mpeg_ts_mpeg_2_two_frames_only:4bd9f3ca2f6ad04505540fe27602dc0b:passed:20200126-124111:0.094711849
T_0690mp4_single_video_frame_duration:074d9d3e0d46e09dc6f0949e56d1c730:passed:20200313-151900:0.05093237
T_0691hevc_in_mp4_no_ctts_atom_no_sei_nalus:4dd1e47fda8f69760803b3ec5e359b98:passed:20200412-163012:0.402784562
T_0692splitting_chapter_name_in_file_name:f90456eacc7f481da6c37f3e0fc897ff:passed:20200425-145924:0.249744821
T_0693keeping_source_id_tags:b87be7fcd48d794028d54f83d982814c:passed:20200426-123650:0.341773044
T_0694fix_tags_when_regenerating_chapter_uids:05f0aee742fa7a9a6e4ac9376fe9912b:passed:20200501-084512:0.12406952
T_0695mpeg_ts_single_h264_frame_with_unbounded_pes_size:1cb729640b38f34f6344e9e03a60d2de:passed:20200617-132547:0.052132087
T_0696wavpack5:5396cb340aad2ae276cb69809af9bddd-009b8b5a53f51ddf0f8fd3be3bf808cb-5396cb340aad2ae276cb69809af9bddd:passed:20200617-144644:0.254738081
T_0697dts_es_xch:true:passed:20200622-160456:0.053396235
T_0698ac3_dolby_surround_ex:true-true-true:passed:20200622-173931:0.176724871
T_0699default_track_forced_off_vs_default_by_type:948041e54acd9ba8f87bc604d17be5db-false-948041e54acd9ba8f87bc604d17be5db-false-0c889b9db327b9848c1c3867c64bf80b-true:passed:20200629-201706:0.313314076
T_0700X_usf:8b0b6c9d676ed480c4dd9a5b1ba6baeb-46001697d31d3a435ac65008cd37ea5a:passed:20200712-180338:0.092373405
T_0701subtitles_duration_rounding:8cd03b80a9b519758e54c5fd0883adc5:passed:20200801-150217:0.047938163
T_0702block_addition_mapping:85578c24d50644f7bf96381eb6374b5e-f51fce40cbff4d925b46cc0ef2d679c1:passed:20200801-175839:1.382622914
T_0703bcp47_mkvmerge_tracks:978c1dc3a889fd9f34e9e104953fb8d9-ok-1353c18e7a1558c870fd61cae64e74e6-ok-91c2e60548554141308bb31055511cce-ok-ff04d25a3346282ac54e482ab18cd7d9-ok-7eecf15a1e091fac3a25f182cd74cc48-ok-36504bb29dcc406dfe1cd3f02e05866b-ok-7dadd7b3d92c799ac2d1c9e381e110b0-ok-716a9199abb5e92d646bfaa43375edb4-ok-5b0983b903546edbcadcf01771f22c99-ok-7c4c252cdf8035ab93406f330504db50-ok-ok-6e5037009db0a962b7fcaa336608fce7-ok-92d435246bf81f11d7e6857dedb86bc8-ok-74ed2c73bd09edf92deafa63ebb1ca0c-ok-01715b3abe1136c005e32a53c3686489-ok-6e5037009db0a962b7fcaa336608fce7-ok-c6b70ca26d6534a29d7bc9509fb65f81-ok-7dadd7b3d92c799ac2d1c9e381e110b0-ab860d126b0baa364c744f6bee234569-ok-7dadd7b3d92c799ac2d1c9e381e110b0-0bf0492cccfa6de5c135333f2652cd3f-ok-7dadd7b3d92c799ac2d1c9e381e110b0-ab860d126b0baa364c744f6bee234569-ok-7dadd7b3d92c799ac2d1c9e381e110b0-ab860d126b0baa364c744f6bee234569-ok-7dadd7b3d92c799ac2d1c9e381e110b0-d1de835d322a3439ebb8322f42f4c89a-ok-7dadd7b3d92c799ac2d1c9e381e110b0-d1de835d322a3439ebb8322f42f4c89a-ok:passed:20200818-174121:10.476005861
T_0704bcp47_mkvmerge_chapters:aedeeb80e76df8c9c0312cb39db6022a-ok-6a0ed0f3cd6ab9644e0f27b2b244adee-ok-680bce93756b00965ee60aa1c70a67f5-ok-74f7763aaf35400b5461f063e15bef62-ok-74f7763aaf35400b5461f063e15bef62-ok-74f7763aaf35400b5461f063e15bef62-ok-a0c145cca868c7261e8daa1d021a1c9e-ok-7c00d0743f65d3ff591fe4d20f191b2c-ok-4c181e5cb0f4d057f1f0a634aa5fbe6f-ok-74f7763aaf35400b5461f063e15bef62-ok-74f7763aaf35400b5461f063e15bef62-ok-74f7763aaf35400b5461f063e15bef62-ok:passed:20200818-180751:1.70604079
T_0705bcp47_propedit_language_ietf:978c1dc3a889fd9f34e9e104953fb8d9-und+und+ok+ger+de_CH+ok+ger+pt_BR+ok+ger++ok+spa+es_MX+ok+eng++ok:passed:20200822-114509:0.769998857
T_0706bcp47_mkvmerge_tracks_disable_language_ietf:1c9e7ab2068219330bb3f39b49279bfb-ok-978c1dc3a889fd9f34e9e104953fb8d9-ok-baec1302103b1222cab2ecdeaf76b7db-ok-1353c18e7a1558c870fd61cae64e74e6-baec1302103b1222cab2ecdeaf76b7db-c512e0cb1b2ab93722d52e0e3338eb40-ok-ok-ok-1c9e7ab2068219330bb3f39b49279bfb-ok-978c1dc3a889fd9f34e9e104953fb8d9-ok-baec1302103b1222cab2ecdeaf76b7db-ok-1353c18e7a1558c870fd61cae64e74e6-baec1302103b1222cab2ecdeaf76b7db-c512e0cb1b2ab93722d52e0e3338eb40-ok-ok-ok:passed:20200829-101345:1.381911961
T_0707bcp47_mkvmerge_chapters_disable_language_ietf:777a8f25c1f365afa641ef4b0a9d2b9f-ok-f037add9add13657c111f70d723fab23-ok-f037add9add13657c111f70d723fab23-ok-26dca9b875508ab724826ed9a0d50156-ok-26dca9b875508ab724826ed9a0d50156-ok-26dca9b875508ab724826ed9a0d50156-ok-109e51dfe74c81b24b2538aea9d726ac-ok-b254921e2009e027c4726c4f9eab1e25-ok-b254921e2009e027c4726c4f9eab1e25-ok-26dca9b875508ab724826ed9a0d50156-ok-777a8f25c1f365afa641ef4b0a9d2b9f-ok-f037add9add13657c111f70d723fab23-ok-f037add9add13657c111f70d723fab23-ok-26dca9b875508ab724826ed9a0d50156-ok-26dca9b875508ab724826ed9a0d50156-ok-26dca9b875508ab724826ed9a0d50156-ok-109e51dfe74c81b24b2538aea9d726ac-ok-b254921e2009e027c4726c4f9eab1e25-ok-b254921e2009e027c4726c4f9eab1e25-ok-26dca9b875508ab724826ed9a0d50156-ok:passed:20200829-101752:2.741116126
T_0708bcp47_propedit_language_ietf_disable_language_ietf:978c1dc3a889fd9f34e9e104953fb8d9-und+und+ok+ger+und+ok+ger+pt_BR+ok+spa+pt_BR+ok+eng+pt_BR+ok+eng++ok:passed:20200829-103838:0.624164037
T_0709bcp47_mkvmerge_tags:70f4b4d2d05c05db587c5cbc23e0adca:passed:20200903-234135:0.062179977
T_0710fuzzying:ok-ok-ok-ok-ok-ok-ok-ok-ok-ok:passed:20200921-133156:0.530508225
T_0711av1_last_frame_duration_when_appending:68fb7303988c9c51fd0d522566f43f71-f69e2fedfdb5c5717135cb2f33412e74:passed:20201001-124823:0.252649168
T_0712info_use_after_free_issue2989:26a53f158c80a4e6b3355470f1ecae63-3a0db59e3b6bba3f987d5779ff93082c:passed:20210108-120314:0.073799314
T_0713mp4_avc_with_empty_avcc:17e78e6f09e0039c7ae3679d43f18432:passed:20210108-120742:0.346481371
T_0714avi_video_aspect_ratio:d40a4fd4eb002c48367cfecdd47afccf-4331bdc2bccdb8b1fb2f753eb567bfc3:passed:20210110-144940:0.247513638
T_0715byte_swapped_ac3:aefd0f347cb14d2fe5b8c9e4bb3e12fb:passed:20210207-115041:0.078944156
T_0716X_hevc_parameter_sets_before_first_frame_differ_from_codecprivate:500a2ece86b5560e55806934d2bccce1:passed:20210218-194923:0.042570082
T_0717bluray_identification:1678ca6001492a7dff112db2eb5171b9-9a71c87b4748b86befe9dfb6acb75bb6:passed:20210219-160953:0.501332702
T_0718non_ascii_characters_in_file_names:3196f15910df0982dada1649dd45aac0-b2b670aad928949d27913c1450f26830-7535de2c43cbc270e2443220acb401eb-2a041e9b321d9271a5e8a3e612689995-1a7c1c4c41a6fac44de162bc34daed64-572c866454201661b93fc709ed349881-ab63dbf588cab59608a7306fa65ee50a-7535de2c43cbc270e2443220acb401eb-32751831418847d69442ffd5edb2103e-1a7c1c4c41a6fac44de162bc34daed64:passed:20210219-161442:0.534302838
T_0719aac_loas_channel_config_13:2b88eb8ba291819379e447b6b9815ef3-true-f293a0dfecfe77a626bb09c5be98446a-true:passed:20210405-210312:0.222922264
T_0720empty_srt_files:999573e18851098220d742be705cae38-999573e18851098220d742be705cae38:passed:20210517-230235:0.097003191
T_0721mutli_chapter_language:0fe824de8d5978df58d19873072e1684-1a7c1c4c41a6fac44de162bc34daed64-141ea83a0afbd789e11e8626c9c31b0e:passed:20210527-192038:0.18844451
T_0722simple_chapters_nanosecond_precision:53c78e08122de339aac4b108a79ede83:passed:20210528-211113:0.050027205
T_0723hevc_dolby_vision_annex_b:1e15918c83ba191a9762ca277f7a7d2d-9a2fff49676632524f14e875f283f0ed-8f8b5baa3e864e3ffecc9b0fcb5bbbd4-d25654002db3463c706324f41f74a1e0-54b1326773393c5df2270da2f5ac530a:passed:20210602-123548:0.926318546
T_0724webvtt_flexible_timestamp_formats:9669118dbecd50fcf8089dab6276816d:passed:20210619-105804:0.046295834
T_0725hevc_invalid_vps:a59c8b4f3bcbf697720ef6f5eed7fba3-1e564e05bc77b3929dcccaf17f8e8771:passed:20210715-153415:0.09220639
T_0726hevc_in_matroska_appending:91481e2f9fce4b911fa03cd4c3c33422:passed:20210725-183245:0.317383008
T_0727chapters_ietf_language_without_639_2:5bb59d606f3a9ab521d95f13e855925d-5bb59d606f3a9ab521d95f13e855925d:passed:20210801-145831:0.051880945
T_0728chapters_keep_languages_unique:31b8c6abbc5f2912c0adfcddc1f95d80:passed:20210801-150405:0.0
T_0729ssa_ass_appending_and_frame_numbers:10154cbcef78650e9d07c302b1e38a2b:passed:20210804-152918:0.063901758
T_0730track_selection_by_language_matching:664c0c6fd29c22aac9eae86d6197ff99-true-664c0c6fd29c22aac9eae86d6197ff99-true-2ff107c8996bab7efc1bd6c3046e6a7e-true-df1319eb0cde87b324d8e4742d835da0-true-dfa761d593b34c87fb87d0acdc548eab-true-8c6820496eb162f886060cf570a75c76-true-1de49bee88a5f7785454ec99d0378bc4-true-664c0c6fd29c22aac9eae86d6197ff99-true-8c6820496eb162f886060cf570a75c76-true:passed:20210829-170532:0.220058809
T_0731hevc_es_wrong_extension_detected_as_dts:be31f72920913b788d89587c073cdb4c-ac521eb2a5812c7fba4461e6e2ab1566:passed:20210904-150154:0.033101906
T_0732eac3_bsid_12:281e3c166a2416c28609865f7495f58d:passed:20211010-164202:0.01791851
T_0733issue_3246_vobsub_id_line_language_dash_dash:6b70af837332e11a23c4c094d6c4dd8d:passed:20211219-110320:0.381696633
T_0734legacy_language_code_fallback_via_extlang_prefix:98768e3e2825951ef8b849d96b1ad2e0-sgn+chi-80eff760c21aaffed94aa571f2c39099-chi-8e43fbbae8a5bd4d72a5d93a2150c772-chi-36504bb29dcc406dfe1cd3f02e05866b-chi+und:passed:20220323-225106:0.287006934
T_0735normalize_language_ietf_tracks:db963bf816f307a39cddfd347ed046a1-ok-742f40a18444b6cf991f23d3fc12fa46-ok-d188d372fbbba2723034eaafcc9461dc-ok:passed:20220327-103026:0.315131033
T_0736normalize_language_ietf_chapters:8c891224c40c8942b9d1418b57f84406-ok-fb30815fe254a3e277e7c97caa347357-ok-432dbd086c123ba310e1d4a19bd1426b-ok:passed:20220327-103029:0.173048279
T_0737normalize_language_ietf_tags:619a8d3dd0386f8812784f5b79630133-ok-5e145c4965e9c800dbc2bce4f620c080-ok-b344ee95e1dbb94d0f8dbaf773cc5a43-ok:passed:20220327-103814:0.178980995
T_0738propedit_normalize_language_ietf_tracks:84154ab529c578151916e24afca81a2a-ddb824e840e623d004b351b33e968f93-ok-84154ab529c578151916e24afca81a2a-39799080b3f5522b40a3afaaf4464022-ok-84154ab529c578151916e24afca81a2a-ba51a298ebaab9aa2c9c8a325b376b04-ok:passed:20220327-114045:0.365823403
T_0739propedit_normalize_language_ietf_chapters:1a7c1c4c41a6fac44de162bc34daed64-6f7ef795b3b002ad6d23161b4ee04e8d-ok-1a7c1c4c41a6fac44de162bc34daed64-16a004a613151a324dcf39f49fc10275-ok-1a7c1c4c41a6fac44de162bc34daed64-22236026369e44821de7ca4b5e058f77-ok:passed:20220327-114610:0.353790859
T_0740propedit_normalize_language_ietf_tags:c66191366167522532ff8ffdf5205519-01ff5eedfa81b87192322076eb3a39ee-ok-c66191366167522532ff8ffdf5205519-ce8c76f8c724c68021214188eb0c9fc7-ok-c66191366167522532ff8ffdf5205519-1125833c96aebe5d0ea09bdf884ac0ac-ok:passed:20220327-115423:0.36762433
T_0741ui_locale_zh_SG:cae399a6b256240c16cd4710530d9cbe-399cd00f7f8a16f553c448c97b560a70:passed:20220406-214314:0.064780497
T_0742keep_color_properties:63f34754244b74c61616382e90449d76-d158d69f36d54a8008d990a9dc01bd58:passed:20220515-133410:0.065128906
T_0743propedit_video_color_attributes_old_names:0d90cb376459eee539a089d783439c78+7c7b6a06c92bba5a7226e5a2ddb3e209+67c993cd909f6580254b7759284c45d7+ab083926c492b19eb0979c327c1ef698-50c99ed5d6a0d8075ed27b78cd454da0+11996175165c555c4d33cccd93354f19+d8b7bd4dfd67a348d181b63e294350cf+72c296931ec59c647c7bbdca3f2da6c2:passed:20220709-111335:0.656156337
T_0744hevc_first_unspec_nalus_after_one_mb_of_data:30089e8ff6cfd6a39e7bb6483a1c7fc5:passed:20220709-115511:0.27140422
T_0745av1_single_frame:1aaef5c9e7f4fc49d3a297ecdbefb01b:passed:20220730-122150:0.044258962
T_0746ogg_unknown_track_and_kate_missing_headers:43cb49944b1552ba9df35f2e1ed303d3:passed:20220904-153425:0.031062254
T_0747reversed_attachment_selection:ok-67de61ddef39f3a39fbf68136783b63b-ok-b5bc906a30ca7b969571d29b235cf80f-ok:passed:20221101-125728:0.367793332
T_0748doc_type_version_handler_create_void_in_ebml_head:4692b2494f3ab58b5e9c09e1ea9ba8c2-5f1d38ff267271552b0a53fdffc994d6:passed:20221102-180257:0.230079273
T_0749X_vobsub_without_codecprivate:50fb1ec888776b1b7cda6ecc5cac8936+b666765e7db59162256a8af1991a5efa-4e25c761f62bbd54e458dd23a37f82b4+9feab6da4f35c12db7503a1eb6b26b33-2739f5e13010633460951dc33c7b6ed9+9b7ea88ef92228de314af75be9bb91b0:passed:20221103-131136:0.318895022
T_0750issue_3466_hevc_in_flv:ok-a4c0516da20037a53480be6f40712bd2:passed:20230101-182204:0.172387598
T_0751dts_in_wav_with_dts_file_name_extension:ok-33088148bc06652c9b8ae653cefc90ec:passed:20230106-230933:0.171704438
T_0752vobsub_identification_on_sub_file:8ca08d756602d947a1c888bfd226bd94-8ca08d756602d947a1c888bfd226bd94:passed:20230228-230228:0.580982711
T_0753webm_block_addition_id_4:60a6843c3a98b2c1c05cd8051b8ce4a4-c428c630ca54e3c9e0a8227c9d8d2df7-efedf7ae916093ebd1e8e5fbbba727b0-81a392df7d9c902b8b91ba490f526f86:passed:20230408-172031:0.262921477
T_0754ac3_with_garbage_0x1001:fdb95953eac0ed2a023a2e3f01d80f4a-6684b82f5107abb94715b680ad394604:passed:20230408-195832:0.130427241
T_0755mp4_title:83363433b425f24bb6b15da2db368677-96be4ac27e1f7b8e4ff8e82f5125d45d-88cc82a92e465dd7f09812b93f2fc7e2:passed:20230410-162736:0.478663415
T_0756cropping_in_json_output_if_values_0:5c0d482b9af2977a7364c452f27bf084-ok:passed:20230504-012817:0.17246505
T_0757av1_overwriting_aspect_ratio:0[4254x815-4254x815-1212x2424-1760x352-3200x352]-1[3520x352-3520x352-1212x2424-1760x352-3200x352]-2[6400x352-6400x352-1212x2424-1760x352-3200x352]:passed:20230505-142751:3.517551664
T_0758av1_dovi_obu:555b408d8597d0a84692eca648311307-6b395ceb9737110ffe34a0086c440df5:passed:20230809-193947:0.158531278
T_0759av1_dovi_ivf:1c9229d6205a442d0bc0c75056d5d7ea-29941857de555915d4f5f8a97558460f:passed:20230812-100011:0.158097467
T_0760dts_starts_with_exss:45b9fb9d55ea682ff232c237541eb8a8:passed:20230819-150332:0.070664357
T_0761hevc_dolby_vision_dual_layer_single_track_annex_b:e7e4741ab8cc8ca32c29f5331ba8a41b-3a82f8c955f2d25d753e6a325001bd1b:passed:20231120-111950:0.243135231
T_0762dovi_combining_bl_and_el:b92f847c8b9bef43990602792f0be9b1-2eeed24f6b3e3f2d6da0e8d25896089b-5de8a035ed872ff6878b7edd5538dede-ef854e7bae7c85ad46b1a0d71d09d3fc:passed:20231129-202129:0.387596229
T_0763vp9_alpha_channel_data:3189f34ccc19a7705ed2fea1cb2fd5c9-OK:passed:20231203-190856:0.059109676
